  % Total    % Received % Xferd  Average Speed   Time    Time     Time  Current
                                 Dload  Upload   Total   Spent    Left  Speed
  0     0    0     0    0     0      0      0 --:--:-- --:--:-- --:--:--     0100   719  100   118  100   601    233   1188 --:--:-- --:--:-- --:--:--  1187100   719  100   118  100   601    233   1188 --:--:-- --:--:-- --:--:--  1187
