  % Total    % Received % Xferd  Average Speed   Time    Time     Time  Current
                                 Dload  Upload   Total   Spent    Left  Speed
  0     0    0     0    0     0      0      0 --:--:-- --:--:-- --:--:--     0100   386    0     0  100   386      0   1812 --:--:-- --:--:-- --:--:--  1812100   512    0   126  100   386    221    677 --:--:-- --:--:-- --:--:--   676
