  % Total    % Received % Xferd  Average Speed   Time    Time     Time  Current
                                 Dload  Upload   Total   Spent    Left  Speed
  0     0    0     0    0     0      0      0 --:--:-- --:--:-- --:--:--     0100   449    0    63  100   386     83    512 --:--:-- --:--:-- --:--:--   512100   449    0    63  100   386     83    512 --:--:-- --:--:-- --:--:--   512
