  % Total    % Received % Xferd  Average Speed   Time    Time     Time  Current
                                 Dload  Upload   Total   Spent    Left  Speed
  0     0    0     0    0     0      0      0 --:--:-- --:--:-- --:--:--     0100   822    0   127  100   695    194   1063 --:--:-- --:--:-- --:--:--  1062100   822    0   127  100   695    194   1063 --:--:-- --:--:-- --:--:--  1062
