10
1/3,1/1
1/3,2/3
1/1,0/1
1/1,1/1
2/3,1/1
2/3,2/3
0/1,2/3
0/1,0/1
0/1,1/3
0/1,1/1
13
3 0 1 4
3 1 9 5
4 1 9 5 4
3 1 9 6
3 1 8 5
6 1 8 5 4 3 2
4 1 8 7 2
3 1 8 6
3 1 4 5
5 1 5 8 7 2
5 1 5 4 3 2
6 2 7 8 5 4 3
4 6 9 7 8
0/1,1/3
1/3,1/3
1/1,1/1
0/1,1/1
0/1,2/3
1/3,2/3
0/1,1/3
0/1,1/1
0/1,2/3
0/1,2/3
