16
0/1,1/64
0/1,0/1
1/2,0/1
33/64,1/64
33/64,1/2
1/2,1/2
1/2,1/64
0/1,63/64
1/2,63/64
33/64,63/64
1/2,1/1
0/1,1/1
1/1,1/64
1/1,63/64
1/1,1/1
1/1,0/1
8
4 0 6 2 1
5 2 15 12 6 3
3 2 6 3
4 3 4 5 6
4 4 9 8 5
4 7 8 10 11
5 8 13 14 10 9
3 8 10 9
0/1,0/1
1/64,0/1
1/64,1/2
0/1,33/64
-31/64,33/64
-31/64,1/2
0/1,1/2
0/1,0/1
0/1,1/2
0/1,33/64
1/64,1/2
1/64,0/1
0/1,0/1
0/1,0/1
1/64,0/1
1/64,0/1
