4
0/1,1/1
0/1,0/1
1/1,0/1
1/1,1/1
1
4 0 3 2 1
-1792728671193156318471947026432/8656059743299229793415925725865,-1792728671193156318471947026432/8656059743299229793415925725865
6863331072106073474943978699433/8656059743299229793415925725865,-1792728671193156318471947026432/8656059743299229793415925725865
6863331072106073474943978699433/8656059743299229793415925725865,6863331072106073474943978699433/8656059743299229793415925725865
-1792728671193156318471947026432/8656059743299229793415925725865,6863331072106073474943978699433/8656059743299229793415925725865
