16
0/1,1/16
0/1,0/1
1/2,0/1
9/16,1/16
9/16,1/2
1/2,1/2
1/2,1/16
0/1,15/16
1/2,15/16
9/16,15/16
1/2,1/1
0/1,1/1
1/1,1/16
1/1,15/16
1/1,1/1
1/1,0/1
8
4 0 6 2 1
5 2 15 12 6 3
3 2 6 3
4 3 4 5 6
4 4 9 8 5
4 7 8 10 11
5 8 13 14 10 9
3 8 10 9
0/1,0/1
1/16,0/1
1/16,1/2
0/1,9/16
-7/16,9/16
-7/16,1/2
0/1,1/2
0/1,0/1
0/1,1/2
0/1,9/16
1/16,1/2
1/16,0/1
0/1,0/1
0/1,0/1
1/16,0/1
1/16,0/1
