4
0/1,1/1
0/1,0/1
1/1,0/1
1/1,1/1
1
4 0 3 2 1
19320908209735322624210/1939869488924013933,333774462228833923764587/66884455993322001177
96612300526632309176782/9699347444620069665,1669072964512149584826466/334422279966610005885
96606480918165537134983/9699347444620069665,1669340502336122872831174/334422279966610005885
96598721440209841079251/9699347444620069665,1669139848968142906827643/334422279966610005885
