4
0/1,1/1
0/1,0/1
1/1,0/1
1/1,1/1
1
4 0 3 2 1
-5167311492873/5753597580100,-27071488512943/65947206674550
586286087227/5753597580100,-27071488512943/65947206674550
586286087227/5753597580100,38875718161607/65947206674550
-5167311492873/5753597580100,38875718161607/65947206674550
