  % Total    % Received % Xferd  Average Speed   Time    Time     Time  Current
                                 Dload  Upload   Total   Spent    Left  Speed
  0     0    0     0    0     0      0      0 --:--:-- --:--:-- --:--:--     0100   718    0   127  100   591    155    725 --:--:-- --:--:-- --:--:--   725100   718    0   127  100   591    155    725 --:--:-- --:--:-- --:--:--   725
