20
7/8,1/1
7/8,0/1
1/1,0/1
1/1,1/1
3/4,1/1
3/4,0/1
5/8,1/1
5/8,0/1
1/2,0/1
1/2,1/1
3/8,1/1
1/2,1/1
1/2,0/1
3/8,0/1
1/4,0/1
1/4,1/1
1/8,1/1
0/1,1/1
0/1,0/1
1/8,0/1
7
4 0 4 5 1
4 0 3 2 1
4 4 6 7 5
4 10 11 12 13
4 10 15 14 13
4 14 19 16 15
4 16 17 18 19
9999999999999999998/1,0/1
9999999999999999999/1,0/1
9999999999999999999/1,1/8
9999999999999999998/1,1/8
9999999999999999998/1,1/8
9999999999999999999/1,1/8
9999999999999999998/1,0/1
9999999999999999999/1,0/1
9999999999999999999/1,1/8
9999999999999999998/1,1/8
9999999999999999998/1,0/1
9999999999999999998/1,1/8
9999999999999999999/1,1/8
9999999999999999999/1,0/1
9999999999999999999/1,1/8
9999999999999999998/1,1/8
9999999999999999998/1,0/1
9999999999999999998/1,1/8
9999999999999999999/1,1/8
9999999999999999999/1,0/1
