7
0/1,1/1
0/1,0/1
1/3,0/1
1/1,2/3
1/1,1/1
1/3,2/3
1/1,0/1
3
6 0 4 3 5 2 1
3 2 6 3
3 2 3 5
524289/1,-1/2097149
524290/1,-1/2097149
524290/1,2097146/6291447
1572868/3,2097148/2097149
524289/1,2097148/2097149
1572868/3,2097146/6291447
1572868/3,2097146/6291447
