  % Total    % Received % Xferd  Average Speed   Time    Time     Time  Current
                                 Dload  Upload   Total   Spent    Left  Speed
  0     0    0     0    0     0      0      0 --:--:-- --:--:-- --:--:--     0100   515    0   126  100   389    262    810 --:--:-- --:--:-- --:--:--   810100   515    0   126  100   389    262    810 --:--:-- --:--:-- --:--:--   810
