4
0/1,1/1
0/1,0/1
1/1,0/1
1/1,1/1
1
4 0 1 2 3
-2913658868572674059421587/64822900100915202129176150,82091441344008437487862369/194468700302745606387528450
61909241232342528069754563/64822900100915202129176150,82091441344008437487862369/194468700302745606387528450
61909241232342528069754563/64822900100915202129176150,276560141646754043875390819/194468700302745606387528450
-2913658868572674059421587/64822900100915202129176150,276560141646754043875390819/194468700302745606387528450
