  % Total    % Received % Xferd  Average Speed   Time    Time     Time  Current
                                 Dload  Upload   Total   Spent    Left  Speed
  0     0    0     0    0     0      0      0 --:--:-- --:--:-- --:--:--     0100   512    0   126  100   386    228    699 --:--:-- --:--:-- --:--:--   698100   512    0   126  100   386    228    698 --:--:-- --:--:-- --:--:--   698
