  % Total    % Received % Xferd  Average Speed   Time    Time     Time  Current
                                 Dload  Upload   Total   Spent    Left  Speed
  0     0    0     0    0     0      0      0 --:--:-- --:--:-- --:--:--     0100   602    0     0  100   602      0   2302 --:--:-- --:--:-- --:--:--  2297100   720  100   118  100   602    156    799 --:--:-- --:--:-- --:--:--   799
