  % Total    % Received % Xferd  Average Speed   Time    Time     Time  Current
                                 Dload  Upload   Total   Spent    Left  Speed
  0     0    0     0    0     0      0      0 --:--:-- --:--:-- --:--:--     0100   540    0   126  100   414    186    613 --:--:-- --:--:-- --:--:--   613100   540    0   126  100   414    186    613 --:--:-- --:--:-- --:--:--   612
