CC: [[0,3,2,1]]
ORIG: Origami [-1/10,-7/10,7/10,-1/10,1/10,7/10,-7/10,1/10] [Edge 0 1,Edge 0 3,Edge 1 2,Edge 3 2] [Facet [Edge 0 3,Edge 3 2,Edge 2 1,Edge 1 0]] (Meta [[0],[1],[2],[3]])
4
CC: [[0,3,2,1]]
CP: [-1/10,-7/10,-7/10,1/10,1/10,7/10,7/10,-1/10] -1/10,-7/10 True True
CP: [-1/10,-7/10,-7/10,1/10,1/10,7/10,7/10,-1/10] -7/10,1/10 True False
CP: [-1/10,-7/10,-7/10,1/10,1/10,7/10,7/10,-1/10] 1/10,7/10 True True
CP: [-1/10,-7/10,-7/10,1/10,1/10,7/10,7/10,-1/10] 7/10,-1/10 True False
IE: [0,3,2,1] [0,3,2,1] True
MF: [[0,3,2,1]]
RF: [[0,3,2,1]]
