  % Total    % Received % Xferd  Average Speed   Time    Time     Time  Current
                                 Dload  Upload   Total   Spent    Left  Speed
  0     0    0     0    0     0      0      0 --:--:-- --:--:-- --:--:--     0100   406    0     0  100   406      0   1904 --:--:-- --:--:-- --:--:--  1897100   532    0   126  100   406    205    660 --:--:-- --:--:-- --:--:--   660
