  % Total    % Received % Xferd  Average Speed   Time    Time     Time  Current
                                 Dload  Upload   Total   Spent    Left  Speed
  0     0    0     0    0     0      0      0 --:--:-- --:--:-- --:--:--     0100   406    0     0  100   406      0   1907 --:--:-- --:--:-- --:--:--  1906100   469    0    63  100   406    104    674 --:--:-- --:--:-- --:--:--   674
