  % Total    % Received % Xferd  Average Speed   Time    Time     Time  Current
                                 Dload  Upload   Total   Spent    Left  Speed
  0     0    0     0    0     0      0      0 --:--:-- --:--:-- --:--:--     0100   544    0   126  100   418    200    665 --:--:-- --:--:-- --:--:--   664100   544    0   126  100   418    200    665 --:--:-- --:--:-- --:--:--   664
