MAKE: [Segment 1/2,-1/1 1/1,-1/1,Segment 1/2,-1/1 1/1,-1/2,Segment 1/2,-1/2 1/1,-1/2,Segment 1/2,-1/2 1/1,0/1,Segment 1/1,-1/1 1/2,-1/2,Segment 1/2,-1/1 1/2,-1/2,Segment 1/1,-1/2 1/1,0/1]
Origami [1/2,-1/1,1/1,-1/1,3/4,-3/4,1/1,-1/2,1/1,0/1,1/2,-1/2] [Edge 0 1,Edge 0 2,Edge 2 3,Edge 5 3,Edge 5 4,Edge 5 2,Edge 2 1,Edge 0 5,Edge 3 4] [Facet [Edge 0 5,Edge 5 2,Edge 2 0],Facet [Edge 0 5,Edge 5 2,Edge 2 1,Edge 1 0],Facet [Edge 0 5,Edge 5 4,Edge 4 3,Edge 3 2,Edge 2 0],Facet [Edge 0 5,Edge 5 4,Edge 4 3,Edge 3 2,Edge 2 1,Edge 1 0],Facet [Edge 0 5,Edge 5 3,Edge 3 2,Edge 2 0],Facet [Edge 0 5,Edge 5 3,Edge 3 2,Edge 2 1,Edge 1 0],Facet [Edge 0 2,Edge 2 1,Edge 1 0],Facet [Edge 2 5,Edge 5 4,Edge 4 3,Edge 3 2],Facet [Edge 2 5,Edge 5 3,Edge 3 2],Facet [Edge 3 4,Edge 4 5,Edge 5 3]] (Meta [[0],[1],[2],[3],[4],[5]])
MIN: [[0,8,9],[0,8,5],[0,8,5,2],[0,8,5,2,1],[0,8,5,4,3,2],[0,8,5,4,3,2,1],[0,8,5,3,2],[0,8,5,3,2,1],[0,8,7,6,5],[0,8,7,6,5,2],[0,8,7,6,5,2,1],[0,8,7,6,5,4,3,2],[0,8,7,6,5,4,3,2,1],[0,8,7,6,5,3,2],[0,8,7,6,5,3,2,1],[0,8,7,5],[0,8,7,5,2],[0,8,7,5,2,1],[0,8,7,5,4,3,2],[0,8,7,5,4,3,2,1],[0,8,7,5,3,2],[0,8,7,5,3,2,1],[0,9,8,5],[0,9,8,5,2],[0,9,8,5,2,1],[0,9,8,5,4,3,2],[0,9,8,5,4,3,2,1],[0,9,8,5,3,2],[0,9,8,5,3,2,1],[0,9,8,7,6,5],[0,9,8,7,6,5,2],[0,9,8,7,6,5,2,1],[0,9,8,7,6,5,4,3,2],[0,9,8,7,6,5,4,3,2,1],[0,9,8,7,6,5,3,2],[0,9,8,7,6,5,3,2,1],[0,9,8,7,5],[0,9,8,7,5,2],[0,9,8,7,5,2,1],[0,9,8,7,5,4,3,2],[0,9,8,7,5,4,3,2,1],[0,9,8,7,5,3,2],[0,9,8,7,5,3,2,1],[0,5,2],[0,5,2,1],[0,5,4,3,2],[0,5,4,3,2,1],[0,5,3,2],[0,5,3,2,1],[0,2,1],[2,5,4,3],[2,5,3],[3,4,5],[5,8,7],[5,8,7,6],[5,6,7]]
RES: [[0,8,9],[0,8,5],[0,5,2],[0,2,1],[2,5,3],[3,4,5],[5,8,7],[5,6,7]]
