MAKE: [Segment 1/2,0/1 1/1,0/1,Segment 0/1,1/2 0/1,1/1,Segment 1/2,0/1 1/2,1/2,Segment 1/1,0/1 1/1,1/1,Segment 1/2,0/1 0/1,1/2,Segment 0/1,1/2 1/2,1/2,Segment 0/1,1/1 1/1,1/1]
Origami [1/2,0/1,1/1,0/1,1/1,1/1,0/1,1/1,0/1,1/2,1/2,1/2] [Edge 0 1,Edge 4 3,Edge 0 5,Edge 1 2,Edge 4 0,Edge 4 5,Edge 3 2] [Facet [Edge 0 4,Edge 4 5,Edge 5 0],Facet [Edge 0 4,Edge 4 3,Edge 3 2,Edge 2 1,Edge 1 0],Facet [Edge 0 5,Edge 5 4,Edge 4 3,Edge 3 2,Edge 2 1,Edge 1 0]] (Meta [[0],[1],[2],[3],[4],[5]])
MIN: [[0,6,4],[0,6,4,5],[0,6,4,3,2,1],[0,4,5],[0,4,3,2,1],[0,5,4,3,2,1]]
RES: [[0,6,4],[0,4,5],[0,5,4,3,2,1]]
