CC: [[0,3,2,1]]
ORIG: Origami [15/29,-6/29,35/29,15/29,14/29,35/29,-6/29,14/29] [Edge 0 1,Edge 0 3,Edge 3 2,Edge 1 2] [Facet [Edge 0 3,Edge 3 2,Edge 2 1,Edge 1 0]] (Meta [[0],[1],[2],[3]])
4
CC: [[0,3,2,1]]
CP: [15/29,-6/29,-6/29,14/29,14/29,35/29,35/29,15/29] 15/29,-6/29 True True
CP: [15/29,-6/29,-6/29,14/29,14/29,35/29,35/29,15/29] -6/29,14/29 True False
CP: [15/29,-6/29,-6/29,14/29,14/29,35/29,35/29,15/29] 14/29,35/29 True True
CP: [15/29,-6/29,-6/29,14/29,14/29,35/29,35/29,15/29] 35/29,15/29 True False
IE: [0,3,2,1] [0,3,2,1] True
MF: [[0,3,2,1]]
RF: [[0,3,2,1]]
