CC: [[0,3,2,1]]
ORIG: Origami [0/1,0/1,1/1,0/1,1/1,1/1,0/1,1/1] [Edge 0 1,Edge 0 3,Edge 1 2,Edge 3 2] [Facet [Edge 0 3,Edge 3 2,Edge 2 1,Edge 1 0]] (Meta [[0],[1],[2],[3]])
4
CC: [[0,3,2,1]]
CP: [0/1,0/1,0/1,1/1,1/1,1/1,1/1,0/1] 0/1,0/1 True False
CP: [0/1,0/1,0/1,1/1,1/1,1/1,1/1,0/1] 0/1,1/1 True False
CP: [0/1,0/1,0/1,1/1,1/1,1/1,1/1,0/1] 1/1,1/1 True False
CP: [0/1,0/1,0/1,1/1,1/1,1/1,1/1,0/1] 1/1,0/1 True True
IE: [0,3,2,1] [0,3,2,1] True
MF: [[0,3,2,1]]
RF: [[0,3,2,1]]
