MAKE: [Segment 26/5396563761318393964062660689603780554533710504641,0/1 1300571866477732945339101226194511113642624231632261/2860178793498748800953210165490003693902866567459730,287/530,Segment 26/5396563761318393964062660689603780554533710504641,0/1 1424692832988056006512542422055398066396899573232114/1430089396749374400476605082745001846951433283729865,23/265,Segment 26/5396563761318393964062660689603780554533710504641,0/1 -124120966510323061173441195860886952754275341592963/2860178793498748800953210165490003693902866567459730,132/265,Segment -124120966510323061173441195860886952754275341592963/2860178793498748800953210165490003693902866567459730,132/265 1300571866477732945339101226194511113642624231632261/2860178793498748800953210165490003693902866567459730,287/530,Segment 1424692832988056006512542422055398066396899573232114/1430089396749374400476605082745001846951433283729865,23/265 1300571866477732945339101226194511113642624231632261/2860178793498748800953210165490003693902866567459730,287/530]
Origami [26/5396563761318393964062660689603780554533710504641,0/1,1424692832988056006512542422055398066396899573232114/1430089396749374400476605082745001846951433283729865,23/265,1300571866477732945339101226194511113642624231632261/2860178793498748800953210165490003693902866567459730,287/530,-124120966510323061173441195860886952754275341592963/2860178793498748800953210165490003693902866567459730,132/265] [Edge 0 2,Edge 0 1,Edge 3 0,Edge 3 2,Edge 2 1] [Facet [Edge 0 3,Edge 3 2,Edge 2 0],Facet [Edge 0 3,Edge 3 2,Edge 2 1,Edge 1 0],Facet [Edge 0 1,Edge 1 2,Edge 2 0]] (Meta [[0],[1],[2],[3]])
MIN: [[0,3,4,5,2],[0,3,4,5,2,1],[0,3,4,2],[0,3,4,2,1],[0,3,2],[0,3,2,1],[0,1,2],[2,5,4],[2,5,4,3],[2,4,3]]
RES: [[0,3,2],[0,1,2],[2,5,4],[2,4,3]]
