6
0/1,1/1
0/1,0/1
1/2,1/2
1/2,1/1
1/1,1/1
1/1,0/1
2
3 0 3 2
3 2 5 4
25/5396563761318393964062660689603780554533710504641,0/1
1424692832988056006512542422055398066396899573231849/1430089396749374400476605082745001846951433283729865,23/265
1300571866477732945339101226194511113642624231631731/2860178793498748800953210165490003693902866567459730,287/530
-124120966510323061173441195860886952754275341593493/2860178793498748800953210165490003693902866567459730,132/265
25/5396563761318393964062660689603780554533710504641,0/1
1424692832988056006512542422055398066396899573231849/1430089396749374400476605082745001846951433283729865,23/265
