12
16642/21565,1/1
0/1,7729/41013
0/1,0/1
25/51,0/1
1/1,26/207
1/1,1/1
7133/7575,598/2525
2871077840/3542263069,812109685/3542263069
1/1,0/1
4972717/6375625,2674256/6375625
6691/7575,181922/522675
0/1,1/1
5
3 0 1 7
3 3 9 10
3 3 10 6
3 3 4 6
4 4 6 10 5
0/1,4923/21565
33284/41013,1/1
2908284115/3542263069,4208966609/3542263069
19959318455/60218472173,219110565334/180655416519
-134937332861/733248455283,90682981500/81472050587
-807627996/3542263069,849315960/3542263069
-1174769647943/8944214249225,26806748771678/26832642747675
0/1,1/1
-1174769647943/8944214249225,26806748771678/26832642747675
-1174769647943/8944214249225,26806748771678/26832642747675
-134937332861/733248455283,90682981500/81472050587
0/1,1/1
