  % Total    % Received % Xferd  Average Speed   Time    Time     Time  Current
                                 Dload  Upload   Total   Spent    Left  Speed
  0     0    0     0    0     0      0      0 --:--:-- --:--:-- --:--:--     0100   991    0   128  100   863    211   1425 --:--:-- --:--:-- --:--:--  1424100   991    0   128  100   863    211   1424 --:--:-- --:--:-- --:--:--  1424
