11
0/1,1/2
0/1,0/1
1/2,0/1
1/1,1/2
1/1,1/1
1/2,1/1
1/2,1/2
1/2,0/1
1/1,0/1
0/1,1/1
1/2,1/1
10
6 0 9 10 3 4 5
5 0 9 10 6 5
3 0 7 6
5 0 7 6 2 1
6 0 7 8 3 2 1
3 0 5 6
5 2 3 8 7 6
3 2 3 6
3 3 10 6
5 3 10 6 5 4
1/1,1/2
3/2,1/2
3/2,1/1
1/1,3/2
1/2,3/2
1/2,1/1
1/1,1/1
1/2,1/1
1/2,3/2
3/2,1/2
3/2,1/1
