14
1/3,2/3
1/3,0/1
1/1,0/1
1/1,2/3
1/3,1/3
2/3,2/3
1/1,1/3
2/3,0/1
2/3,1/3
0/1,2/3
0/1,1/3
0/1,0/1
0/1,1/1
1/1,1/1
6
4 0 9 10 4
4 0 5 8 4
4 1 11 10 4
4 1 7 8 4
4 2 6 8 7
4 3 6 8 5
0/1,0/1
2/3,0/1
2/3,2/3
0/1,2/3
1/3,0/1
0/1,1/3
1/3,2/3
2/3,1/3
1/3,1/3
0/1,1/3
1/3,1/3
2/3,1/3
1/3,1/3
1/3,2/3
