13
1/2,3/4
1/2,1/2
1/1,0/1
1/1,1/1
3/4,3/4
1/1,3/4
1/1,1/2
0/1,0/1
0/1,1/2
0/1,3/4
1/4,3/4
0/1,1/1
1/2,1/1
2
3 2 12 6
3 3 9 10
5/4,9/2
3/2,9/2
2/1,5/1
1/1,5/1
5/4,19/4
5/4,5/1
3/2,5/1
2/1,5/1
3/2,5/1
5/4,5/1
5/4,19/4
3/2,5/1
3/2,9/2
