MAKE: [Segment -13701973463/93837882025,-67166620091/93837882025 72980609641/93837882025,-31226699538/93837882025,Segment -13701973463/93837882025,-67166620091/93837882025 -76073065571443/225387658497365,-4401830998267/17337512192105,Segment 0/1,0/1 108851/170144,0/1,Segment 0/1,0/1 0/1,5729/13407,Segment -76073065571443/225387658497365,-4401830998267/17337512192105 -38477245846208/138325956715065,129466132504972/414977870145195,Segment -76073065571443/225387658497365,-4401830998267/17337512192105 -369051880055001/6790015305446975,1074080120554652/6790015305446975,Segment -369051880055001/6790015305446975,1074080120554652/6790015305446975 -38477245846208/138325956715065,129466132504972/414977870145195,Segment 72980609641/93837882025,-31226699538/93837882025 108851/170144,0/1,Segment 108851/170144,0/1 0/1,5729/13407,Segment -38477245846208/138325956715065,129466132504972/414977870145195 0/1,5729/13407]
Origami [-13701973463/93837882025,-67166620091/93837882025,72980609641/93837882025,-31226699538/93837882025,108851/170144,0/1,0/1,5729/13407,-38477245846208/138325956715065,129466132504972/414977870145195,-76073065571443/225387658497365,-4401830998267/17337512192105,0/1,0/1,-369051880055001/6790015305446975,1074080120554652/6790015305446975] [Edge 0 1,Edge 5 0,Edge 6 2,Edge 6 3,Edge 5 4,Edge 5 7,Edge 4 7,Edge 2 1,Edge 3 2,Edge 4 3] [Facet [Edge 0 5,Edge 5 7,Edge 7 4,Edge 4 3,Edge 3 2,Edge 2 1,Edge 1 0],Facet [Edge 0 5,Edge 5 7,Edge 7 4,Edge 4 3,Edge 3 6,Edge 6 2,Edge 2 1,Edge 1 0],Facet [Edge 0 5,Edge 5 4,Edge 4 3,Edge 3 2,Edge 2 1,Edge 1 0],Facet [Edge 0 5,Edge 5 4,Edge 4 3,Edge 3 6,Edge 6 2,Edge 2 1,Edge 1 0],Facet [Edge 2 3,Edge 3 6,Edge 6 2],Facet [Edge 4 7,Edge 7 5,Edge 5 4]] (Meta [[0],[1],[2],[3],[4],[5],[6],[7]])
MIN: [[0,5,9,4,3,8,2,1],[0,5,9,4,3,2,1],[0,5,9,4,3,6,2,1],[0,5,7,4,3,8,2,1],[0,5,7,4,3,2,1],[0,5,7,4,3,6,2,1],[0,5,4,3,8,2,1],[0,5,4,3,2,1],[0,5,4,3,6,2,1],[2,8,3],[2,8,3,6],[2,3,6],[4,9,5],[4,9,5,7],[4,7,5]]
RES: [[0,5,7,4,3,6,2,1],[2,8,3],[2,3,6],[4,9,5],[4,7,5]]
