MAKE: [Segment 5/4,9/2 5/4,5/1,Segment 3/2,9/2 3/2,5/1,Segment 3/2,9/2 2/1,5/1,Segment 3/2,9/2 1/1,5/1,Segment 5/4,9/2 3/2,9/2,Segment 1/1,5/1 2/1,5/1]
Origami [5/4,9/2,3/2,9/2,2/1,5/1,1/1,5/1,5/4,19/4,5/4,5/1,3/2,5/1] [Edge 0 4,Edge 4 5,Edge 1 6,Edge 1 2,Edge 3 4,Edge 4 1,Edge 0 1,Edge 3 5,Edge 5 6,Edge 6 2] [Facet [Edge 0 1,Edge 1 4,Edge 4 0],Facet [Edge 0 1,Edge 1 2,Edge 2 6,Edge 6 5,Edge 5 3,Edge 3 4,Edge 4 0],Facet [Edge 0 1,Edge 1 2,Edge 2 6,Edge 6 5,Edge 5 4,Edge 4 0],Facet [Edge 0 1,Edge 1 6,Edge 6 5,Edge 5 3,Edge 3 4,Edge 4 0],Facet [Edge 0 1,Edge 1 6,Edge 6 5,Edge 5 4,Edge 4 0],Facet [Edge 1 4,Edge 4 3,Edge 3 5,Edge 5 6,Edge 6 1],Facet [Edge 1 4,Edge 4 3,Edge 3 5,Edge 5 6,Edge 6 2,Edge 2 1],Facet [Edge 1 4,Edge 4 5,Edge 5 6,Edge 6 1],Facet [Edge 1 4,Edge 4 5,Edge 5 6,Edge 6 2,Edge 2 1],Facet [Edge 1 2,Edge 2 6,Edge 6 1],Facet [Edge 3 5,Edge 5 4,Edge 4 3]] (Meta [[0],[1],[2],[3],[4],[5],[6]])
MIN: [[0,11,1],[0,11,1,4],[0,11,1,2,6,5,3,4],[0,11,1,2,6,5,4],[0,11,1,6,5,3,4],[0,11,1,6,5,4],[0,11,10,9,8,7,1],[0,11,10,9,8,7,1,4],[0,11,10,9,8,7,1,2,6,5,3,4],[0,11,10,9,8,7,1,2,6,5,4],[0,11,10,9,8,7,1,6,5,3,4],[0,11,10,9,8,7,1,6,5,4],[0,11,10,9,8,1],[0,11,10,9,8,1,4],[0,11,10,9,8,1,2,6,5,3,4],[0,11,10,9,8,1,2,6,5,4],[0,11,10,9,8,1,6,5,3,4],[0,11,10,9,8,1,6,5,4],[0,11,9,8,7,1],[0,11,9,8,7,1,4],[0,11,9,8,7,1,2,6,5,3,4],[0,11,9,8,7,1,2,6,5,4],[0,11,9,8,7,1,6,5,3,4],[0,11,9,8,7,1,6,5,4],[0,11,9,8,1],[0,11,9,8,1,4],[0,11,9,8,1,2,6,5,3,4],[0,11,9,8,1,2,6,5,4],[0,11,9,8,1,6,5,3,4],[0,11,9,8,1,6,5,4],[0,1,4],[0,1,2,6,5,3,4],[0,1,2,6,5,4],[0,1,6,5,3,4],[0,1,6,5,4],[1,11,10,9,8],[1,11,10,9,8,7],[1,11,9,8],[1,11,9,8,7],[1,7,8],[1,4,3,5,6],[1,4,3,5,6,2],[1,4,5,6],[1,4,5,6,2],[1,2,6],[3,5,4],[9,10,11]]
RES: [[0,11,1],[0,1,4],[1,11,9,8],[1,7,8],[1,4,5,6],[1,2,6],[3,5,4],[9,10,11]]
