  % Total    % Received % Xferd  Average Speed   Time    Time     Time  Current
                                 Dload  Upload   Total   Spent    Left  Speed
  0     0    0     0    0     0      0      0 --:--:-- --:--:-- --:--:--     0100   668    0   129  100   539    159    667 --:--:-- --:--:-- --:--:--   667100   668    0   129  100   539    159    667 --:--:-- --:--:-- --:--:--   667
