12
1/2,2/3
1/2,0/1
1/1,0/1
1/1,2/3
1/2,1/3
1/1,1/3
0/1,0/1
0/1,1/3
0/1,2/3
0/1,1/1
1/2,1/1
1/1,1/1
9
4 0 10 9 8
4 0 10 1 4
4 0 10 11 3
4 0 8 7 4
4 0 4 5 3
4 1 6 7 4
4 1 4 5 2
4 2 11 3 5
4 6 9 8 7
-3170/1,-351/1
-2634040/831,-97059/277
-2634418/831,-194003/554
-878216/277,-194339/554
-2634155/831,-97143/277
-2634533/831,-194171/554
-2634418/831,-194003/554
-2634533/831,-194171/554
-878216/277,-194339/554
-2634533/831,-194171/554
-2634155/831,-97143/277
-2634533/831,-194171/554
