  % Total    % Received % Xferd  Average Speed   Time    Time     Time  Current
                                 Dload  Upload   Total   Spent    Left  Speed
  0     0    0     0    0     0      0      0 --:--:-- --:--:-- --:--:--     0100   960  100    86  100   874    176   1798 --:--:-- --:--:-- --:--:--  1798100   960  100    86  100   874    176   1798 --:--:-- --:--:-- --:--:--  1798
