  % Total    % Received % Xferd  Average Speed   Time    Time     Time  Current
                                 Dload  Upload   Total   Spent    Left  Speed
  0     0    0     0    0     0      0      0 --:--:-- --:--:-- --:--:--     0100   546    0     0  100   546      0   2567 --:--:-- --:--:-- --:--:--  2563100   667  100   121  100   546    261   1178 --:--:-- --:--:-- --:--:--  1176
