11
0/1,1/1
0/1,0/1
1/1,0/1
2/3,1/3
2/3,2/3
1/3,2/3
0/1,2/3
2/3,0/1
1/1,1/3
1/1,1/1
1/3,1/1
9
3 0 10 5
3 0 5 6
3 1 7 6
3 2 8 3
3 2 7 3
5 3 8 10 5 4
4 3 5 6 7
3 3 5 4
3 8 9 10
144897422516064013828595290094/551991433855915168375,814434780471175942515847118991/824389206328398603875
144897422710364998545877429362/551991433855915168375,814434781242804239639228212218/824389206328398603875
144897422193701016456740831763/551991433855915168375,814434781532989240266824520782/824389206328398603875
86938453380693209348415390724/331194860313549101025,488660868707430884609899232111/494633523797039162325
434692266709165062024794814352/1655974301567745505125,2443304342765526125926115067328/2473167618985195811625
434692267225829044113931411951/1655974301567745505125,2443304342475341125298518758764/2473167618985195811625
17387690709699721048122720382/66238972062709820205,32577391229135414995612299336/32975568253135944155
144897422365922343819786364296/551991433855915168375,2443304344308782720172877253782/2473167618985195811625
144897422365922343819786364296/551991433855915168375,2443304344308782720172877253782/2473167618985195811625
144897422710364998545877429362/551991433855915168375,814434781242804239639228212218/824389206328398603875
17387690709699721048122720382/66238972062709820205,32577391229135414995612299336/32975568253135944155
