12
1/2,2/3
1/2,0/1
1/1,0/1
1/1,2/3
1/2,1/3
1/1,1/3
0/1,2/3
0/1,1/3
0/1,0/1
0/1,1/1
1/2,1/1
1/1,1/1
9
4 0 10 9 6
4 0 10 11 3
4 0 10 1 4
4 0 6 7 4
4 0 3 5 4
4 1 8 7 4
4 1 2 5 4
4 2 11 3 5
4 6 9 8 7
3626/1,2232/1
3013436/831,618432/277
3013058/831,1236979/554
1004276/277,1236643/554
3013321/831,618348/277
3012943/831,1236811/554
1004276/277,1236643/554
3012943/831,1236811/554
3013058/831,1236979/554
3012943/831,1236811/554
3013321/831,618348/277
3012943/831,1236811/554
