MAKE: [Segment 3268/1,7416/1 2715938/831,2054400/277,Segment 905110/277,4108579/554 2715560/831,4108915/554,Segment 3268/1,7416/1 905110/277,4108579/554,Segment 2715823/831,2054316/277 2715445/831,4108747/554,Segment 2715938/831,2054400/277 2715560/831,4108915/554]
Origami [3268/1,7416/1,2715938/831,2054400/277,2715560/831,4108915/554,905110/277,4108579/554,2715823/831,2054316/277,2715445/831,4108747/554] [Edge 0 4,Edge 4 1,Edge 3 5,Edge 5 2,Edge 3 0,Edge 5 4,Edge 2 1] [Facet [Edge 0 3,Edge 3 5,Edge 5 4,Edge 4 0],Facet [Edge 0 3,Edge 3 5,Edge 5 2,Edge 2 1,Edge 1 4,Edge 4 0],Facet [Edge 1 2,Edge 2 5,Edge 5 4,Edge 4 1]] (Meta [[0],[1],[2],[3],[4],[5]])
MIN: [[0,10,9,8,1,2,11,3],[0,10,9,8,1,2,11,3,5,4],[0,10,9,8,1,2,11,3,5,4,7,6],[0,10,9,8,1,2,5,4],[0,10,9,8,1,2,5,4,7,6],[0,10,9,8,1,2,5,3],[0,10,9,8,1,4],[0,10,9,8,1,4,7,6],[0,10,9,8,1,4,5,3],[0,10,9,8,7,4],[0,10,9,8,7,4,5,2,11,3],[0,10,9,8,7,4,5,3],[0,10,9,8,7,4,1,2,11,3],[0,10,9,8,7,4,1,2,5,3],[0,10,9,8,7,6],[0,10,9,6],[0,10,9,6,7,4],[0,10,9,6,7,4,5,2,11,3],[0,10,9,6,7,4,5,3],[0,10,9,6,7,4,1,2,11,3],[0,10,9,6,7,4,1,2,5,3],[0,10,9,6,7,8,1,2,11,3],[0,10,9,6,7,8,1,2,5,3],[0,10,9,6,7,8,1,4,5,3],[0,10,11,2,1,8,9,6],[0,10,11,2,1,8,9,6,7,4],[0,10,11,2,1,8,7,4],[0,10,11,2,1,8,7,4,5,3],[0,10,11,2,1,8,7,6],[0,10,11,2,1,4],[0,10,11,2,1,4,7,6],[0,10,11,2,1,4,5,3],[0,10,11,2,5,4],[0,10,11,2,5,4,7,8,9,6],[0,10,11,2,5,4,7,6],[0,10,11,2,5,4,1,8,9,6],[0,10,11,2,5,4,1,8,7,6],[0,10,11,2,5,3],[0,10,11,3],[0,10,11,3,5,4],[0,10,11,3,5,4,7,8,9,6],[0,10,11,3,5,4,7,6],[0,10,11,3,5,4,1,8,9,6],[0,10,11,3,5,4,1,8,7,6],[0,10,11,3,5,2,1,8,9,6],[0,10,11,3,5,2,1,8,7,6],[0,10,11,3,5,2,1,4,7,6],[0,10,1,8,9,6],[0,10,1,8,7,4],[0,10,1,8,7,4,5,3],[0,10,1,8,7,6],[0,10,1,2,11,3],[0,10,1,2,5,4],[0,10,1,2,5,4,7,6],[0,10,1,2,5,3],[0,10,1,4],[0,10,1,4,7,6],[0,10,1,4,5,3],[0,6,9,10,11,2,1,4],[0,6,9,10,11,2,1,4,5,3],[0,6,9,10,11,2,5,4],[0,6,9,10,11,2,5,3],[0,6,9,10,11,3],[0,6,9,10,11,3,5,4],[0,6,9,10,1,2,11,3],[0,6,9,10,1,2,5,4],[0,6,9,10,1,2,5,3],[0,6,9,10,1,4],[0,6,9,10,1,4,5,3],[0,6,9,8,1,10,11,3],[0,6,9,8,1,2,11,3],[0,6,9,8,1,2,11,3,5,4],[0,6,9,8,1,2,5,4],[0,6,9,8,1,2,5,3],[0,6,9,8,1,4],[0,6,9,8,1,4,5,3],[0,6,9,8,7,4],[0,6,9,8,7,4,5,2,11,3],[0,6,9,8,7,4,5,3],[0,6,9,8,7,4,1,10,11,3],[0,6,9,8,7,4,1,2,11,3],[0,6,9,8,7,4,1,2,5,3],[0,6,7,4],[0,6,7,4,5,2,11,3],[0,6,7,4,5,3],[0,6,7,4,1,10,11,3],[0,6,7,4,1,2,11,3],[0,6,7,4,1,2,5,3],[0,6,7,8,9,10,11,2,5,3],[0,6,7,8,9,10,11,3],[0,6,7,8,1,10,11,3],[0,6,7,8,1,2,11,3],[0,6,7,8,1,2,11,3,5,4],[0,6,7,8,1,2,5,4],[0,6,7,8,1,2,5,3],[0,6,7,8,1,4],[0,6,7,8,1,4,5,3],[0,3,11,10,9,8,1,4],[0,3,11,10,9,8,7,4],[0,3,11,10,9,6,7,4],[0,3,11,10,1,8,7,4],[0,3,11,10,1,4],[0,3,11,2,1,8,7,4],[0,3,11,2,1,4],[0,3,11,2,5,4],[0,3,5,4],[0,3,5,2,1,8,7,4],[0,3,5,2,1,4],[1,10,9,8],[1,10,9,8,7,4],[1,10,9,8,7,4,5,2],[1,10,9,8,7,4,5,3,11,2],[1,10,9,6,7,4],[1,10,9,6,7,4,5,2],[1,10,9,6,7,4,5,3,11,2],[1,10,9,6,7,8],[1,10,11,2],[1,10,11,2,5,4],[1,10,11,2,5,4,7,8],[1,10,11,2,5,4,7,6,9,8],[1,10,11,3,5,4],[1,10,11,3,5,4,7,8],[1,10,11,3,5,4,7,6,9,8],[1,10,11,3,5,2],[1,8,9,10,11,2],[1,8,9,10,11,2,5,4],[1,8,9,10,11,3,5,4],[1,8,9,10,11,3,5,2],[1,8,9,6,7,4],[1,8,9,6,7,4,5,2],[1,8,9,6,7,4,5,3,11,2],[1,8,7,4],[1,8,7,4,5,2],[1,8,7,4,5,3,11,2],[1,8,7,6,9,10,11,2],[1,8,7,6,9,10,11,3,5,2],[1,2,11,10,9,8,7,4],[1,2,11,10,9,6,7,4],[1,2,11,3,5,4],[1,2,5,4],[2,11,10,9,8,7,4,5],[2,11,10,9,6,7,4,5],[2,11,3,5],[3,11,10,9,8,7,4,5],[3,11,10,9,6,7,4,5],[6,9,8,7]]
RES: [[0,10,9,6],[0,10,11,3],[0,10,1,4],[0,6,7,4],[0,3,5,4],[1,8,7,4],[1,2,5,4],[2,11,3,5],[6,9,8,7]]
