11
0/1,1/1
1/2,1/2
1/1,1/2
1/1,1/1
3/4,3/4
1/2,1/1
0/1,0/1
3/4,1/4
1/2,0/1
3/4,1/4
1/1,0/1
3
3 1 8 6
3 1 4 2
3 2 3 4
-1/5,-2/5
-1/10,3/10
-2/5,7/10
-4/5,2/5
-9/20,7/20
-1/2,0/1
-1/5,-2/5
-9/20,7/20
-1/2,0/1
-9/20,7/20
-4/5,2/5
