MAKE: [Segment 3472/1,2708/1 2885462/831,750284/277,Segment 961618/277,1500347/554 2885084/831,1500683/554,Segment 3472/1,2708/1 961618/277,1500347/554,Segment 2885347/831,750200/277 2884969/831,1500515/554,Segment 2885462/831,750284/277 2885084/831,1500683/554]
Origami [3472/1,2708/1,2885462/831,750284/277,2885084/831,1500683/554,961618/277,1500347/554,2885347/831,750200/277,2884969/831,1500515/554] [Edge 0 4,Edge 4 1,Edge 3 5,Edge 5 2,Edge 3 0,Edge 5 4,Edge 2 1] [Facet [Edge 0 3,Edge 3 5,Edge 5 4,Edge 4 0],Facet [Edge 0 3,Edge 3 5,Edge 5 2,Edge 2 1,Edge 1 4,Edge 4 0],Facet [Edge 1 2,Edge 2 5,Edge 5 4,Edge 4 1]] (Meta [[0],[1],[2],[3],[4],[5]])
MIN: [[0,10,9,8,1,2,11,3],[0,10,9,8,1,2,11,3,5,4],[0,10,9,8,1,2,11,3,5,4,7,6],[0,10,9,8,1,2,5,4],[0,10,9,8,1,2,5,4,7,6],[0,10,9,8,1,2,5,3],[0,10,9,8,1,4],[0,10,9,8,1,4,7,6],[0,10,9,8,1,4,5,3],[0,10,9,8,7,4],[0,10,9,8,7,4,5,2,11,3],[0,10,9,8,7,4,5,3],[0,10,9,8,7,4,1,2,11,3],[0,10,9,8,7,4,1,2,5,3],[0,10,9,8,7,6],[0,10,9,6],[0,10,9,6,7,4],[0,10,9,6,7,4,5,2,11,3],[0,10,9,6,7,4,5,3],[0,10,9,6,7,4,1,2,11,3],[0,10,9,6,7,4,1,2,5,3],[0,10,9,6,7,8,1,2,11,3],[0,10,9,6,7,8,1,2,5,3],[0,10,9,6,7,8,1,4,5,3],[0,10,11,2,1,8,9,6],[0,10,11,2,1,8,9,6,7,4],[0,10,11,2,1,8,7,4],[0,10,11,2,1,8,7,4,5,3],[0,10,11,2,1,8,7,6],[0,10,11,2,1,4],[0,10,11,2,1,4,7,6],[0,10,11,2,1,4,5,3],[0,10,11,2,5,4],[0,10,11,2,5,4,7,8,9,6],[0,10,11,2,5,4,7,6],[0,10,11,2,5,4,1,8,9,6],[0,10,11,2,5,4,1,8,7,6],[0,10,11,2,5,3],[0,10,11,3],[0,10,11,3,5,4],[0,10,11,3,5,4,7,8,9,6],[0,10,11,3,5,4,7,6],[0,10,11,3,5,4,1,8,9,6],[0,10,11,3,5,4,1,8,7,6],[0,10,11,3,5,2,1,8,9,6],[0,10,11,3,5,2,1,8,7,6],[0,10,11,3,5,2,1,4,7,6],[0,10,1,8,9,6],[0,10,1,8,7,4],[0,10,1,8,7,4,5,3],[0,10,1,8,7,6],[0,10,1,2,11,3],[0,10,1,2,5,4],[0,10,1,2,5,4,7,6],[0,10,1,2,5,3],[0,10,1,4],[0,10,1,4,7,6],[0,10,1,4,5,3],[0,6,9,10,11,2,1,4],[0,6,9,10,11,2,1,4,5,3],[0,6,9,10,11,2,5,4],[0,6,9,10,11,2,5,3],[0,6,9,10,11,3],[0,6,9,10,11,3,5,4],[0,6,9,10,1,2,11,3],[0,6,9,10,1,2,5,4],[0,6,9,10,1,2,5,3],[0,6,9,10,1,4],[0,6,9,10,1,4,5,3],[0,6,9,8,1,10,11,3],[0,6,9,8,1,2,11,3],[0,6,9,8,1,2,11,3,5,4],[0,6,9,8,1,2,5,4],[0,6,9,8,1,2,5,3],[0,6,9,8,1,4],[0,6,9,8,1,4,5,3],[0,6,9,8,7,4],[0,6,9,8,7,4,5,2,11,3],[0,6,9,8,7,4,5,3],[0,6,9,8,7,4,1,10,11,3],[0,6,9,8,7,4,1,2,11,3],[0,6,9,8,7,4,1,2,5,3],[0,6,7,4],[0,6,7,4,5,2,11,3],[0,6,7,4,5,3],[0,6,7,4,1,10,11,3],[0,6,7,4,1,2,11,3],[0,6,7,4,1,2,5,3],[0,6,7,8,9,10,11,2,5,3],[0,6,7,8,9,10,11,3],[0,6,7,8,1,10,11,3],[0,6,7,8,1,2,11,3],[0,6,7,8,1,2,11,3,5,4],[0,6,7,8,1,2,5,4],[0,6,7,8,1,2,5,3],[0,6,7,8,1,4],[0,6,7,8,1,4,5,3],[0,3,11,10,9,8,1,4],[0,3,11,10,9,8,7,4],[0,3,11,10,9,6,7,4],[0,3,11,10,1,8,7,4],[0,3,11,10,1,4],[0,3,11,2,1,8,7,4],[0,3,11,2,1,4],[0,3,11,2,5,4],[0,3,5,4],[0,3,5,2,1,8,7,4],[0,3,5,2,1,4],[1,10,9,8],[1,10,9,8,7,4],[1,10,9,8,7,4,5,2],[1,10,9,8,7,4,5,3,11,2],[1,10,9,6,7,4],[1,10,9,6,7,4,5,2],[1,10,9,6,7,4,5,3,11,2],[1,10,9,6,7,8],[1,10,11,2],[1,10,11,2,5,4],[1,10,11,2,5,4,7,8],[1,10,11,2,5,4,7,6,9,8],[1,10,11,3,5,4],[1,10,11,3,5,4,7,8],[1,10,11,3,5,4,7,6,9,8],[1,10,11,3,5,2],[1,8,9,10,11,2],[1,8,9,10,11,2,5,4],[1,8,9,10,11,3,5,4],[1,8,9,10,11,3,5,2],[1,8,9,6,7,4],[1,8,9,6,7,4,5,2],[1,8,9,6,7,4,5,3,11,2],[1,8,7,4],[1,8,7,4,5,2],[1,8,7,4,5,3,11,2],[1,8,7,6,9,10,11,2],[1,8,7,6,9,10,11,3,5,2],[1,2,11,10,9,8,7,4],[1,2,11,10,9,6,7,4],[1,2,11,3,5,4],[1,2,5,4],[2,11,10,9,8,7,4,5],[2,11,10,9,6,7,4,5],[2,11,3,5],[3,11,10,9,8,7,4,5],[3,11,10,9,6,7,4,5],[6,9,8,7]]
RES: [[0,10,9,6],[0,10,11,3],[0,10,1,4],[0,6,7,4],[0,3,5,4],[1,8,7,4],[1,2,5,4],[2,11,3,5],[6,9,8,7]]
