MAKE: [Segment 2368/1,3234/1 1968038/831,895986/277,Segment 655810/277,1791751/554 1967660/831,1792087/554,Segment 2368/1,3234/1 655810/277,1791751/554,Segment 1967923/831,895902/277 1967545/831,1791919/554,Segment 1968038/831,895986/277 1967660/831,1792087/554]
Origami [2368/1,3234/1,1968038/831,895986/277,1967660/831,1792087/554,655810/277,1791751/554,1967923/831,895902/277,1967545/831,1791919/554] [Edge 0 4,Edge 4 1,Edge 3 5,Edge 5 2,Edge 3 0,Edge 5 4,Edge 2 1] [Facet [Edge 0 3,Edge 3 5,Edge 5 4,Edge 4 0],Facet [Edge 0 3,Edge 3 5,Edge 5 2,Edge 2 1,Edge 1 4,Edge 4 0],Facet [Edge 1 2,Edge 2 5,Edge 5 4,Edge 4 1]] (Meta [[0],[1],[2],[3],[4],[5]])
MIN: [[0,10,9,8,1,2,11,3],[0,10,9,8,1,2,11,3,5,4],[0,10,9,8,1,2,11,3,5,4,7,6],[0,10,9,8,1,2,5,4],[0,10,9,8,1,2,5,4,7,6],[0,10,9,8,1,2,5,3],[0,10,9,8,1,4],[0,10,9,8,1,4,7,6],[0,10,9,8,1,4,5,3],[0,10,9,8,7,4],[0,10,9,8,7,4,5,2,11,3],[0,10,9,8,7,4,5,3],[0,10,9,8,7,4,1,2,11,3],[0,10,9,8,7,4,1,2,5,3],[0,10,9,8,7,6],[0,10,9,6],[0,10,9,6,7,4],[0,10,9,6,7,4,5,2,11,3],[0,10,9,6,7,4,5,3],[0,10,9,6,7,4,1,2,11,3],[0,10,9,6,7,4,1,2,5,3],[0,10,9,6,7,8,1,2,11,3],[0,10,9,6,7,8,1,2,5,3],[0,10,9,6,7,8,1,4,5,3],[0,10,11,2,1,8,9,6],[0,10,11,2,1,8,9,6,7,4],[0,10,11,2,1,8,7,4],[0,10,11,2,1,8,7,4,5,3],[0,10,11,2,1,8,7,6],[0,10,11,2,1,4],[0,10,11,2,1,4,7,6],[0,10,11,2,1,4,5,3],[0,10,11,2,5,4],[0,10,11,2,5,4,7,8,9,6],[0,10,11,2,5,4,7,6],[0,10,11,2,5,4,1,8,9,6],[0,10,11,2,5,4,1,8,7,6],[0,10,11,2,5,3],[0,10,11,3],[0,10,11,3,5,4],[0,10,11,3,5,4,7,8,9,6],[0,10,11,3,5,4,7,6],[0,10,11,3,5,4,1,8,9,6],[0,10,11,3,5,4,1,8,7,6],[0,10,11,3,5,2,1,8,9,6],[0,10,11,3,5,2,1,8,7,6],[0,10,11,3,5,2,1,4,7,6],[0,10,1,8,9,6],[0,10,1,8,7,4],[0,10,1,8,7,4,5,3],[0,10,1,8,7,6],[0,10,1,2,11,3],[0,10,1,2,5,4],[0,10,1,2,5,4,7,6],[0,10,1,2,5,3],[0,10,1,4],[0,10,1,4,7,6],[0,10,1,4,5,3],[0,6,9,10,11,2,1,4],[0,6,9,10,11,2,1,4,5,3],[0,6,9,10,11,2,5,4],[0,6,9,10,11,2,5,3],[0,6,9,10,11,3],[0,6,9,10,11,3,5,4],[0,6,9,10,1,2,11,3],[0,6,9,10,1,2,5,4],[0,6,9,10,1,2,5,3],[0,6,9,10,1,4],[0,6,9,10,1,4,5,3],[0,6,9,8,1,10,11,3],[0,6,9,8,1,2,11,3],[0,6,9,8,1,2,11,3,5,4],[0,6,9,8,1,2,5,4],[0,6,9,8,1,2,5,3],[0,6,9,8,1,4],[0,6,9,8,1,4,5,3],[0,6,9,8,7,4],[0,6,9,8,7,4,5,2,11,3],[0,6,9,8,7,4,5,3],[0,6,9,8,7,4,1,10,11,3],[0,6,9,8,7,4,1,2,11,3],[0,6,9,8,7,4,1,2,5,3],[0,6,7,4],[0,6,7,4,5,2,11,3],[0,6,7,4,5,3],[0,6,7,4,1,10,11,3],[0,6,7,4,1,2,11,3],[0,6,7,4,1,2,5,3],[0,6,7,8,9,10,11,2,5,3],[0,6,7,8,9,10,11,3],[0,6,7,8,1,10,11,3],[0,6,7,8,1,2,11,3],[0,6,7,8,1,2,11,3,5,4],[0,6,7,8,1,2,5,4],[0,6,7,8,1,2,5,3],[0,6,7,8,1,4],[0,6,7,8,1,4,5,3],[0,3,11,10,9,8,1,4],[0,3,11,10,9,8,7,4],[0,3,11,10,9,6,7,4],[0,3,11,10,1,8,7,4],[0,3,11,10,1,4],[0,3,11,2,1,8,7,4],[0,3,11,2,1,4],[0,3,11,2,5,4],[0,3,5,4],[0,3,5,2,1,8,7,4],[0,3,5,2,1,4],[1,10,9,8],[1,10,9,8,7,4],[1,10,9,8,7,4,5,2],[1,10,9,8,7,4,5,3,11,2],[1,10,9,6,7,4],[1,10,9,6,7,4,5,2],[1,10,9,6,7,4,5,3,11,2],[1,10,9,6,7,8],[1,10,11,2],[1,10,11,2,5,4],[1,10,11,2,5,4,7,8],[1,10,11,2,5,4,7,6,9,8],[1,10,11,3,5,4],[1,10,11,3,5,4,7,8],[1,10,11,3,5,4,7,6,9,8],[1,10,11,3,5,2],[1,8,9,10,11,2],[1,8,9,10,11,2,5,4],[1,8,9,10,11,3,5,4],[1,8,9,10,11,3,5,2],[1,8,9,6,7,4],[1,8,9,6,7,4,5,2],[1,8,9,6,7,4,5,3,11,2],[1,8,7,4],[1,8,7,4,5,2],[1,8,7,4,5,3,11,2],[1,8,7,6,9,10,11,2],[1,8,7,6,9,10,11,3,5,2],[1,2,11,10,9,8,7,4],[1,2,11,10,9,6,7,4],[1,2,11,3,5,4],[1,2,5,4],[2,11,10,9,8,7,4,5],[2,11,10,9,6,7,4,5],[2,11,3,5],[3,11,10,9,8,7,4,5],[3,11,10,9,6,7,4,5],[6,9,8,7]]
RES: [[0,10,9,6],[0,10,11,3],[0,10,1,4],[0,6,7,4],[0,3,5,4],[1,8,7,4],[1,2,5,4],[2,11,3,5],[6,9,8,7]]
