MAKE: [Segment 6301/1,6016/1 5236361/831,1666600/277,Segment 1745251/277,3332979/554 5235983/831,3333315/554,Segment 6301/1,6016/1 1745251/277,3332979/554,Segment 5236246/831,1666516/277 5235868/831,3333147/554,Segment 5236361/831,1666600/277 5235983/831,3333315/554]
Origami [6301/1,6016/1,5236361/831,1666600/277,5235983/831,3333315/554,1745251/277,3332979/554,5236246/831,1666516/277,5235868/831,3333147/554] [Edge 0 4,Edge 4 1,Edge 3 5,Edge 5 2,Edge 3 0,Edge 5 4,Edge 2 1] [Facet [Edge 0 3,Edge 3 5,Edge 5 4,Edge 4 0],Facet [Edge 0 3,Edge 3 5,Edge 5 2,Edge 2 1,Edge 1 4,Edge 4 0],Facet [Edge 1 2,Edge 2 5,Edge 5 4,Edge 4 1]] (Meta [[0],[1],[2],[3],[4],[5]])
MIN: [[0,10,9,8,1,2,11,3],[0,10,9,8,1,2,11,3,5,4],[0,10,9,8,1,2,11,3,5,4,7,6],[0,10,9,8,1,2,5,4],[0,10,9,8,1,2,5,4,7,6],[0,10,9,8,1,2,5,3],[0,10,9,8,1,4],[0,10,9,8,1,4,7,6],[0,10,9,8,1,4,5,3],[0,10,9,8,7,4],[0,10,9,8,7,4,5,2,11,3],[0,10,9,8,7,4,5,3],[0,10,9,8,7,4,1,2,11,3],[0,10,9,8,7,4,1,2,5,3],[0,10,9,8,7,6],[0,10,9,6],[0,10,9,6,7,4],[0,10,9,6,7,4,5,2,11,3],[0,10,9,6,7,4,5,3],[0,10,9,6,7,4,1,2,11,3],[0,10,9,6,7,4,1,2,5,3],[0,10,9,6,7,8,1,2,11,3],[0,10,9,6,7,8,1,2,5,3],[0,10,9,6,7,8,1,4,5,3],[0,10,11,2,1,8,9,6],[0,10,11,2,1,8,9,6,7,4],[0,10,11,2,1,8,7,4],[0,10,11,2,1,8,7,4,5,3],[0,10,11,2,1,8,7,6],[0,10,11,2,1,4],[0,10,11,2,1,4,7,6],[0,10,11,2,1,4,5,3],[0,10,11,2,5,4],[0,10,11,2,5,4,7,8,9,6],[0,10,11,2,5,4,7,6],[0,10,11,2,5,4,1,8,9,6],[0,10,11,2,5,4,1,8,7,6],[0,10,11,2,5,3],[0,10,11,3],[0,10,11,3,5,4],[0,10,11,3,5,4,7,8,9,6],[0,10,11,3,5,4,7,6],[0,10,11,3,5,4,1,8,9,6],[0,10,11,3,5,4,1,8,7,6],[0,10,11,3,5,2,1,8,9,6],[0,10,11,3,5,2,1,8,7,6],[0,10,11,3,5,2,1,4,7,6],[0,10,1,8,9,6],[0,10,1,8,7,4],[0,10,1,8,7,4,5,3],[0,10,1,8,7,6],[0,10,1,2,11,3],[0,10,1,2,5,4],[0,10,1,2,5,4,7,6],[0,10,1,2,5,3],[0,10,1,4],[0,10,1,4,7,6],[0,10,1,4,5,3],[0,6,9,10,11,2,1,4],[0,6,9,10,11,2,1,4,5,3],[0,6,9,10,11,2,5,4],[0,6,9,10,11,2,5,3],[0,6,9,10,11,3],[0,6,9,10,11,3,5,4],[0,6,9,10,1,2,11,3],[0,6,9,10,1,2,5,4],[0,6,9,10,1,2,5,3],[0,6,9,10,1,4],[0,6,9,10,1,4,5,3],[0,6,9,8,1,10,11,3],[0,6,9,8,1,2,11,3],[0,6,9,8,1,2,11,3,5,4],[0,6,9,8,1,2,5,4],[0,6,9,8,1,2,5,3],[0,6,9,8,1,4],[0,6,9,8,1,4,5,3],[0,6,9,8,7,4],[0,6,9,8,7,4,5,2,11,3],[0,6,9,8,7,4,5,3],[0,6,9,8,7,4,1,10,11,3],[0,6,9,8,7,4,1,2,11,3],[0,6,9,8,7,4,1,2,5,3],[0,6,7,4],[0,6,7,4,5,2,11,3],[0,6,7,4,5,3],[0,6,7,4,1,10,11,3],[0,6,7,4,1,2,11,3],[0,6,7,4,1,2,5,3],[0,6,7,8,9,10,11,2,5,3],[0,6,7,8,9,10,11,3],[0,6,7,8,1,10,11,3],[0,6,7,8,1,2,11,3],[0,6,7,8,1,2,11,3,5,4],[0,6,7,8,1,2,5,4],[0,6,7,8,1,2,5,3],[0,6,7,8,1,4],[0,6,7,8,1,4,5,3],[0,3,11,10,9,8,1,4],[0,3,11,10,9,8,7,4],[0,3,11,10,9,6,7,4],[0,3,11,10,1,8,7,4],[0,3,11,10,1,4],[0,3,11,2,1,8,7,4],[0,3,11,2,1,4],[0,3,11,2,5,4],[0,3,5,4],[0,3,5,2,1,8,7,4],[0,3,5,2,1,4],[1,10,9,8],[1,10,9,8,7,4],[1,10,9,8,7,4,5,2],[1,10,9,8,7,4,5,3,11,2],[1,10,9,6,7,4],[1,10,9,6,7,4,5,2],[1,10,9,6,7,4,5,3,11,2],[1,10,9,6,7,8],[1,10,11,2],[1,10,11,2,5,4],[1,10,11,2,5,4,7,8],[1,10,11,2,5,4,7,6,9,8],[1,10,11,3,5,4],[1,10,11,3,5,4,7,8],[1,10,11,3,5,4,7,6,9,8],[1,10,11,3,5,2],[1,8,9,10,11,2],[1,8,9,10,11,2,5,4],[1,8,9,10,11,3,5,4],[1,8,9,10,11,3,5,2],[1,8,9,6,7,4],[1,8,9,6,7,4,5,2],[1,8,9,6,7,4,5,3,11,2],[1,8,7,4],[1,8,7,4,5,2],[1,8,7,4,5,3,11,2],[1,8,7,6,9,10,11,2],[1,8,7,6,9,10,11,3,5,2],[1,2,11,10,9,8,7,4],[1,2,11,10,9,6,7,4],[1,2,11,3,5,4],[1,2,5,4],[2,11,10,9,8,7,4,5],[2,11,10,9,6,7,4,5],[2,11,3,5],[3,11,10,9,8,7,4,5],[3,11,10,9,6,7,4,5],[6,9,8,7]]
RES: [[0,10,9,6],[0,10,11,3],[0,10,1,4],[0,6,7,4],[0,3,5,4],[1,8,7,4],[1,2,5,4],[2,11,3,5],[6,9,8,7]]
