MAKE: [Segment 659413493/1262477814,-33939586/631238907 3224772893/3156194535,-93140144/3156194535,Segment 72294572/3156194535,-246255716/3156194535 3143951893/6312389070,2813082461/6312389070,Segment 72294572/3156194535,-246255716/3156194535 -115222/85302555,71890997/170605110,Segment 659413493/1262477814,-33939586/631238907 3143951893/6312389070,2813082461/6312389070,Segment 659413493/1262477814,-33939586/631238907 -115222/85302555,71890997/170605110,Segment -115222/85302555,71890997/170605110 3143951893/6312389070,2813082461/6312389070,Segment 3224772893/3156194535,-93140144/3156194535 3143951893/6312389070,2813082461/6312389070]
Origami [72294572/3156194535,-246255716/3156194535,3288541037/12624778140,2320571029/12624778140,659413493/1262477814,-33939586/631238907,3224772893/3156194535,-93140144/3156194535,3143951893/6312389070,2813082461/6312389070,-115222/85302555,71890997/170605110] [Edge 2 3,Edge 0 1,Edge 1 4,Edge 5 0,Edge 4 2,Edge 5 1,Edge 1 2,Edge 5 4,Edge 4 3] [Facet [Edge 0 5,Edge 5 4,Edge 4 3,Edge 3 2,Edge 2 1,Edge 1 0],Facet [Edge 0 5,Edge 5 4,Edge 4 2,Edge 2 1,Edge 1 0],Facet [Edge 0 5,Edge 5 4,Edge 4 1,Edge 1 0],Facet [Edge 0 5,Edge 5 1,Edge 1 0],Facet [Edge 1 2,Edge 2 4,Edge 4 1],Facet [Edge 1 2,Edge 2 4,Edge 4 5,Edge 5 1],Facet [Edge 1 2,Edge 2 3,Edge 3 4,Edge 4 1],Facet [Edge 1 2,Edge 2 3,Edge 3 4,Edge 4 5,Edge 5 1],Facet [Edge 1 5,Edge 5 4,Edge 4 1],Facet [Edge 2 4,Edge 4 3,Edge 3 2]] (Meta [[0],[1],[2],[3],[4],[5]])
MIN: [[0,5,9,8,4,3,2,1],[0,5,9,8,4,2,1],[0,5,9,8,4,1],[0,5,9,8,7,4,3,2,1],[0,5,9,8,7,4,2,1],[0,5,9,8,7,4,1],[0,5,9,4,3,2,1],[0,5,9,4,2,1],[0,5,9,4,1],[0,5,6,9,8,4,3,2,1],[0,5,6,9,8,4,2,1],[0,5,6,9,8,4,1],[0,5,6,9,8,7,4,3,2,1],[0,5,6,9,8,7,4,2,1],[0,5,6,9,8,7,4,1],[0,5,6,9,4,3,2,1],[0,5,6,9,4,2,1],[0,5,6,9,4,1],[0,5,4,3,2,1],[0,5,4,2,1],[0,5,4,1],[0,5,1],[1,2,4],[1,2,4,7,8,9,5],[1,2,4,7,8,9,6,5],[1,2,4,8,9,5],[1,2,4,8,9,6,5],[1,2,4,9,5],[1,2,4,9,6,5],[1,2,4,5],[1,2,3,4],[1,2,3,4,7,8,9,5],[1,2,3,4,7,8,9,6,5],[1,2,3,4,8,9,5],[1,2,3,4,8,9,6,5],[1,2,3,4,9,5],[1,2,3,4,9,6,5],[1,2,3,4,5],[1,5,9,8,4],[1,5,9,8,7,4],[1,5,9,4],[1,5,6,9,8,4],[1,5,6,9,8,7,4],[1,5,6,9,4],[1,5,4],[2,4,3],[4,7,8],[4,7,8,9],[4,7,8,9,5],[4,7,8,9,6,5],[4,8,9],[4,8,9,5],[4,8,9,6,5],[4,9,5],[4,9,6,5],[5,9,6]]
RES: [[0,5,1],[1,2,4],[1,5,4],[2,4,3],[4,7,8],[4,8,9],[4,9,5],[5,9,6]]
