MAKE: [Segment 162277/162615,-8554/162615 67477/65046,14500/32523,Segment 175277/325230,157831/325230 2542/4395,8647/8790,Segment 175277/325230,157831/325230 175108/162615,153554/162615,Segment 162277/162615,-8554/162615 175277/325230,157831/325230,Segment 67477/65046,14500/32523 175277/325230,157831/325230,Segment 67477/65046,14500/32523 2542/4395,8647/8790,Segment 175108/162615,153554/162615 2542/4395,8647/8790]
Origami [162277/162615,-8554/162615,67477/65046,14500/32523,525493/650460,464939/650460,175108/162615,153554/162615,2542/4395,8647/8790,175277/325230,157831/325230] [Edge 0 1,Edge 5 4,Edge 5 2,Edge 2 3,Edge 5 0,Edge 5 1,Edge 4 2,Edge 2 1,Edge 4 3] [Facet [Edge 0 5,Edge 5 1,Edge 1 0],Facet [Edge 0 5,Edge 5 2,Edge 2 1,Edge 1 0],Facet [Edge 0 5,Edge 5 4,Edge 4 3,Edge 3 2,Edge 2 1,Edge 1 0],Facet [Edge 0 5,Edge 5 4,Edge 4 2,Edge 2 1,Edge 1 0],Facet [Edge 1 2,Edge 2 4,Edge 4 5,Edge 5 1],Facet [Edge 1 2,Edge 2 3,Edge 3 4,Edge 4 5,Edge 5 1],Facet [Edge 1 2,Edge 2 5,Edge 5 1],Facet [Edge 2 4,Edge 4 3,Edge 3 2],Facet [Edge 2 4,Edge 4 5,Edge 5 2],Facet [Edge 2 3,Edge 3 4,Edge 4 5,Edge 5 2]] (Meta [[0],[1],[2],[3],[4],[5]])
MIN: [[0,5,9,8,4,3,2,1],[0,5,9,8,4,2,1],[0,5,9,8,7,4,3,2,1],[0,5,9,8,7,4,2,1],[0,5,6,9,8,4,3,2,1],[0,5,6,9,8,4,2,1],[0,5,6,9,8,7,4,3,2,1],[0,5,6,9,8,7,4,2,1],[0,5,8,4,3,2,1],[0,5,8,4,2,1],[0,5,8,7,4,3,2,1],[0,5,8,7,4,2,1],[0,5,1],[0,5,2,1],[0,5,4,3,2,1],[0,5,4,2,1],[1,2,4,7,8,9,5],[1,2,4,7,8,9,6,5],[1,2,4,7,8,5],[1,2,4,8,9,5],[1,2,4,8,9,6,5],[1,2,4,8,5],[1,2,4,5],[1,2,3,4,7,8,9,5],[1,2,3,4,7,8,9,6,5],[1,2,3,4,7,8,5],[1,2,3,4,8,9,5],[1,2,3,4,8,9,6,5],[1,2,3,4,8,5],[1,2,3,4,5],[1,2,5],[2,4,7,8,9,5],[2,4,7,8,9,6,5],[2,4,7,8,5],[2,4,8,9,5],[2,4,8,9,6,5],[2,4,8,5],[2,4,3],[2,4,5],[2,3,4,7,8,9,5],[2,3,4,7,8,9,6,5],[2,3,4,7,8,5],[2,3,4,8,9,5],[2,3,4,8,9,6,5],[2,3,4,8,5],[2,3,4,5],[4,7,8],[4,7,8,9,5],[4,7,8,9,6,5],[4,7,8,5],[4,8,9,5],[4,8,9,6,5],[4,8,5],[5,9,8],[5,9,6],[5,6,9,8]]
RES: [[0,5,1],[1,2,5],[2,4,3],[2,4,5],[4,7,8],[4,8,5],[5,9,8],[5,9,6]]
