  % Total    % Received % Xferd  Average Speed   Time    Time     Time  Current
                                 Dload  Upload   Total   Spent    Left  Speed
  0     0    0     0    0     0      0      0 --:--:-- --:--:-- --:--:--     0100   607    0   128  100   479    236    883 --:--:-- --:--:-- --:--:--   883100   607    0   128  100   479    236    883 --:--:-- --:--:-- --:--:--   883
