4
0/1,1/1
0/1,0/1
1/1,0/1
1/1,1/1
1
4 0 3 2 1
184205279367279259619012364799844384/8656059743299229793415925725865,-333649615534140005543535329050492857/8656059743299229793415925725865
184211400125822102390002787319159497/8656059743299229793415925725865,-333643494775597162772095391750029241/8656059743299229793415925725865
184205279367279259618562850018695881/8656059743299229793415925725865,-333637374017054320001104969230714128/8656059743299229793415925725865
184199158608736416847572427499380768/8656059743299229793415925725865,-333643494775597162772544906531177744/8656059743299229793415925725865
