MAKE: [Segment -147573952589676412928/1,-1180591620717411303423/2 -295147905179352825855/2,-1180591620717411303423/2,Segment -295147905179352825855/2,-590295810358705651711/1 -147573952589676412927/1,-590295810358705651711/1,Segment -147573952589676412928/1,-590295810358705651712/1 -147573952589676412927/1,-590295810358705651711/1,Segment -147573952589676412928/1,-1180591620717411303423/2 -295147905179352825855/2,-590295810358705651711/1,Segment -147573952589676412928/1,-590295810358705651712/1 -147573952589676412928/1,-1180591620717411303423/2,Segment -295147905179352825855/2,-1180591620717411303423/2 -295147905179352825855/2,-590295810358705651711/1]
Origami [-147573952589676412928/1,-590295810358705651712/1,-147573952589676412927/1,-590295810358705651711/1,-295147905179352825855/2,-590295810358705651711/1,-147573952589676412928/1,-1180591620717411303423/2,-295147905179352825855/2,-1180591620717411303423/2] [Edge 3 4,Edge 2 1,Edge 0 4,Edge 4 1,Edge 3 2,Edge 0 3,Edge 4 2] [Facet [Edge 0 3,Edge 3 2,Edge 2 4,Edge 4 0],Facet [Edge 0 3,Edge 3 2,Edge 2 1,Edge 1 4,Edge 4 0],Facet [Edge 0 3,Edge 3 4,Edge 4 0],Facet [Edge 1 4,Edge 4 2,Edge 2 1],Facet [Edge 1 4,Edge 4 3,Edge 3 2,Edge 2 1],Facet [Edge 2 4,Edge 4 3,Edge 3 2]] (Meta [[0],[1],[2],[3],[4]])
MIN: [[0,3,7,4],[0,3,6,4],[0,3,6,5,4],[0,3,2,4],[0,3,2,1,4],[0,3,4],[1,4,7,3,2],[1,4,6,3,2],[1,4,5,6,3,2],[1,4,2],[1,4,3,2],[2,4,7,3],[2,4,6,3],[2,4,5,6,3],[2,4,3],[3,7,4],[3,7,4,6],[3,7,4,5,6],[3,6,4],[3,6,5,4],[4,6,5]]
RES: [[0,3,6,4],[0,3,4],[1,4,2],[2,4,7,3],[2,4,3],[3,7,4],[3,6,4],[4,6,5]]
