MAKE: [Segment 1/159955065947184900328611941,0/1 1/159955065947184900328611940,1/159955065947184900328611940,Segment 1/159955065947184900328611941,0/1 1/1,0/1,Segment 1/159955065947184900328611940,1/159955065947184900328611940 2/3,2/3,Segment 159955065947184900328611941/12792811561084135247661262087692433528883803883893741,-1/12792811561084135247661262087692433528883803883893741 1/159955065947184900328611941,0/1,Segment 159955065947184900328611941/12792811561084135247661262087692433528883803883893741,-1/12792811561084135247661262087692433528883803883893741 1/159955065947184900328611940,1/159955065947184900328611940,Segment 1/1,0/1 2/3,2/3,Segment 1/1,0/1 1/5,3/5,Segment 1/5,3/5 2/3,2/3]
Origami [159955065947184900328611941/12792811561084135247661262087692433528883803883893741,-1/12792811561084135247661262087692433528883803883893741,159955065947184900328611942/12792811561084135247661262247647499476068704212505681,0/1,1/1,0/1,2/3,2/3,1/5,3/5,3/7,3/7,1/159955065947184900328611940,1/159955065947184900328611940,1/159955065947184900328611941,0/1,0/1,0/1,1/12792811561084135247661262247647499476068704212505681,1/12792811561084135247661262247647499476068704212505681] [Edge 8 9,Edge 9 7,Edge 7 6,Edge 6 1,Edge 1 0,Edge 8 9,Edge 9 7,Edge 7 6,Edge 6 1,Edge 1 0,Edge 0 2,Edge 8 9,Edge 9 7,Edge 7 6,Edge 6 1,Edge 1 0,Edge 0 5,Edge 5 3,Edge 8 9,Edge 9 7,Edge 7 6,Edge 6 1,Edge 1 0,Edge 8 9,Edge 9 7,Edge 7 6,Edge 6 1,Edge 1 0,Edge 3 2,Edge 4 5,Edge 5 2,Edge 4 3] [Facet [Edge 0 5,Edge 5 2,Edge 2 0],Facet [Edge 0 5,Edge 5 4,Edge 4 3,Edge 3 2,Edge 2 0],Facet [Edge 0 5,Edge 5 3,Edge 3 2,Edge 2 0],Facet [Edge 2 5,Edge 5 4,Edge 4 3,Edge 3 2],Facet [Edge 2 5,Edge 5 3,Edge 3 2],Facet [Edge 3 4,Edge 4 5,Edge 5 3]] (Meta [[0],[1],[2],[3],[4],[5],[6],[7],[8],[9]])
origami: GrahamScan.hs:(28,13)-(34,52): Non-exhaustive patterns in function loop

