8
0/1,1/1
1/1,0/1
1/1,1/2
1/2,1/1
1/2,1/2
0/1,0/1
0/1,1/2
1/1,1/1
0

-147573952589676412928/1,-590295810358705651712/1
-147573952589676412927/1,-590295810358705651711/1
-295147905179352825855/2,-590295810358705651711/1
-147573952589676412928/1,-1180591620717411303423/2
-295147905179352825855/2,-1180591620717411303423/2
-147573952589676412927/1,-590295810358705651711/1
-295147905179352825855/2,-590295810358705651711/1
-147573952589676412928/1,-590295810358705651712/1
