9
0/1,1/1
0/1,1/2
1/2,1/2
0/1,0/1
1/1,1/1
1/2,1/1
0/1,0/1
1/2,0/1
1/1,0/1
6
3 0 5 2
3 0 2 1
4 1 6 2 3
3 2 8 7
3 2 7 6
3 2 4 5
-1/1,1/2
-1/2,1/2
-1/2,1/1
-1/1,1/2
-1/1,1/2
-1/2,1/2
-1/1,1/2
-1/2,1/2
-1/1,1/2
