  % Total    % Received % Xferd  Average Speed   Time    Time     Time  Current
                                 Dload  Upload   Total   Spent    Left  Speed
  0     0    0     0    0     0      0      0 --:--:-- --:--:-- --:--:--     0100   648  100    90  100   558     80    499  0:00:01  0:00:01 --:--:--   500100   648  100    90  100   558     80    499  0:00:01  0:00:01 --:--:--   500
