  % Total    % Received % Xferd  Average Speed   Time    Time     Time  Current
                                 Dload  Upload   Total   Spent    Left  Speed
  0     0    0     0    0     0      0      0 --:--:-- --:--:-- --:--:--     0100   634  100   118  100   516    252   1103 --:--:-- --:--:-- --:--:--  1102100   634  100   118  100   516    252   1103 --:--:-- --:--:-- --:--:--  1102
