12
1/2,3/4
1/2,1/4
3/4,0/1
1/1,0/1
1/1,1/1
3/4,1/1
3/4,1/4
3/4,3/4
1/4,1/1
0/1,1/1
0/1,0/1
1/4,0/1
4
3 0 8 7
3 0 7 5
3 1 11 6
3 1 6 2
-1/4,-1/2
1/4,-1/2
1/2,-1/4
1/2,0/1
-1/2,0/1
-1/2,-1/4
1/4,-1/4
-1/4,-1/4
-1/2,-1/4
-1/2,0/1
1/2,0/1
1/2,-1/4
