  % Total    % Received % Xferd  Average Speed   Time    Time     Time  Current
                                 Dload  Upload   Total   Spent    Left  Speed
  0     0    0     0    0     0      0      0 --:--:-- --:--:-- --:--:--     0100   562  100   121  100   441    149    543 --:--:-- --:--:-- --:--:--   543100   562  100   121  100   441    149    543 --:--:-- --:--:-- --:--:--   543
