  % Total    % Received % Xferd  Average Speed   Time    Time     Time  Current
                                 Dload  Upload   Total   Spent    Left  Speed
  0     0    0     0    0     0      0      0 --:--:-- --:--:-- --:--:--     0100   562  100   121  100   441    232    846 --:--:-- --:--:-- --:--:--   844100   562  100   121  100   441    232    845 --:--:-- --:--:-- --:--:--   844
