15
1/2,3/4
1/2,1/2
1/1,1/2
1/1,3/4
1/2,1/1
1/1,1/1
1/2,1/4
1/2,0/1
1/1,0/1
1/1,1/4
0/1,1/1
0/1,3/4
0/1,1/2
0/1,1/4
0/1,0/1
8
4 0 11 10 4
4 0 11 12 1
4 0 4 5 3
4 0 1 2 3
4 1 12 13 6
4 1 6 9 2
4 6 13 14 7
4 6 7 8 9
3/4,1/2
1/1,1/2
1/1,1/1
3/4,1/1
1/1,1/2
1/1,1/1
3/4,1/2
1/1,1/2
1/1,1/1
3/4,1/1
1/1,1/1
3/4,1/1
1/1,1/1
3/4,1/1
1/1,1/1
