  % Total    % Received % Xferd  Average Speed   Time    Time     Time  Current
                                 Dload  Upload   Total   Spent    Left  Speed
  0     0    0     0    0     0      0      0 --:--:-- --:--:-- --:--:--     0100   562  100   121  100   441    251    915 --:--:-- --:--:-- --:--:--   914100   562  100   121  100   441    251    914 --:--:-- --:--:-- --:--:--   914
