  % Total    % Received % Xferd  Average Speed   Time    Time     Time  Current
                                 Dload  Upload   Total   Spent    Left  Speed
  0     0    0     0    0     0      0      0 --:--:-- --:--:-- --:--:--     0100   441    0     0  100   441      0   2147 --:--:-- --:--:-- --:--:--  2140100   562  100   121  100   441    260    950 --:--:-- --:--:-- --:--:--   950
