MAKE: [Segment 0/1,0/1 1/1,0/1,Segment 0/1,0/1 0/1,1/1,Segment 3/4,0/1 3/4,3/4,Segment 3/4,0/1 0/1,3/4,Segment 1/1,0/1 0/1,1/1,Segment 0/1,3/4 3/4,3/4]
Origami [0/1,0/1,1/1,0/1,3/4,1/4,3/4,3/4,1/4,3/4,0/1,1/1,3/4,0/1,0/1,3/4] [Edge 0 6,Edge 6 1,Edge 0 7,Edge 7 5,Edge 6 2,Edge 2 3,Edge 7 6,Edge 5 4,Edge 4 2,Edge 2 1,Edge 7 4,Edge 4 3] [Facet [Edge 0 7,Edge 7 4,Edge 4 3,Edge 3 2,Edge 2 1,Edge 1 6,Edge 6 0],Facet [Edge 0 7,Edge 7 4,Edge 4 3,Edge 3 2,Edge 2 6,Edge 6 0],Facet [Edge 0 7,Edge 7 4,Edge 4 2,Edge 2 1,Edge 1 6,Edge 6 0],Facet [Edge 0 7,Edge 7 4,Edge 4 2,Edge 2 6,Edge 6 0],Facet [Edge 0 7,Edge 7 6,Edge 6 0],Facet [Edge 0 7,Edge 7 5,Edge 5 4,Edge 4 3,Edge 3 2,Edge 2 1,Edge 1 6,Edge 6 0],Facet [Edge 0 7,Edge 7 5,Edge 5 4,Edge 4 3,Edge 3 2,Edge 2 6,Edge 6 0],Facet [Edge 0 7,Edge 7 5,Edge 5 4,Edge 4 2,Edge 2 1,Edge 1 6,Edge 6 0],Facet [Edge 0 7,Edge 7 5,Edge 5 4,Edge 4 2,Edge 2 6,Edge 6 0],Facet [Edge 1 2,Edge 2 4,Edge 4 7,Edge 7 6,Edge 6 1],Facet [Edge 1 2,Edge 2 4,Edge 4 5,Edge 5 7,Edge 7 6,Edge 6 1],Facet [Edge 1 2,Edge 2 3,Edge 3 4,Edge 4 7,Edge 7 6,Edge 6 1],Facet [Edge 1 2,Edge 2 3,Edge 3 4,Edge 4 5,Edge 5 7,Edge 7 6,Edge 6 1],Facet [Edge 1 2,Edge 2 6,Edge 6 1],Facet [Edge 2 4,Edge 4 3,Edge 3 2],Facet [Edge 2 4,Edge 4 7,Edge 7 6,Edge 6 2],Facet [Edge 2 4,Edge 4 5,Edge 5 7,Edge 7 6,Edge 6 2],Facet [Edge 2 3,Edge 3 4,Edge 4 7,Edge 7 6,Edge 6 2],Facet [Edge 2 3,Edge 3 4,Edge 4 5,Edge 5 7,Edge 7 6,Edge 6 2],Facet [Edge 4 7,Edge 7 5,Edge 5 4]] (Meta [[0],[1],[2],[3],[4],[5],[6],[7]])
MIN: [[0,7,4,9,10,2,1,6],[0,7,4,9,10,2,6],[0,7,4,9,10,1,6],[0,7,4,9,8,10,2,1,6],[0,7,4,9,8,10,2,6],[0,7,4,9,8,10,1,6],[0,7,4,3,2,10,1,6],[0,7,4,3,2,1,6],[0,7,4,3,2,6],[0,7,4,2,10,1,6],[0,7,4,2,1,6],[0,7,4,2,6],[0,7,4,5,9,10,2,1,6],[0,7,4,5,9,10,2,6],[0,7,4,5,9,10,1,6],[0,7,4,5,9,8,10,2,1,6],[0,7,4,5,9,8,10,2,6],[0,7,4,5,9,8,10,1,6],[0,7,6],[0,7,5,9,4,3,2,10,1,6],[0,7,5,9,4,3,2,1,6],[0,7,5,9,4,3,2,6],[0,7,5,9,4,2,1,6],[0,7,5,9,4,2,6],[0,7,5,9,10,2,1,6],[0,7,5,9,10,2,6],[0,7,5,9,10,1,6],[0,7,5,9,8,10,2,1,6],[0,7,5,9,8,10,2,6],[0,7,5,9,8,10,1,6],[0,7,5,4,3,2,10,1,6],[0,7,5,4,3,2,1,6],[0,7,5,4,3,2,6],[0,7,5,4,2,10,1,6],[0,7,5,4,2,1,6],[0,7,5,4,2,6],[1,10,9,4,3,2],[1,10,9,4,3,2,6],[1,10,9,4,7,6],[1,10,9,4,7,6,2],[1,10,9,4,2],[1,10,9,4,2,6],[1,10,9,4,5,7,6],[1,10,9,4,5,7,6,2],[1,10,9,5,4,3,2],[1,10,9,5,4,3,2,6],[1,10,9,5,4,2],[1,10,9,5,4,2,6],[1,10,9,5,7,4,3,2],[1,10,9,5,7,4,3,2,6],[1,10,9,5,7,4,2],[1,10,9,5,7,6],[1,10,9,5,7,6,2],[1,10,2],[1,10,2,4,7,6],[1,10,2,4,5,7,6],[1,10,2,3,4,7,6],[1,10,2,3,4,5,7,6],[1,10,2,6],[1,10,8,9,4,3,2],[1,10,8,9,4,3,2,6],[1,10,8,9,4,7,6],[1,10,8,9,4,7,6,2],[1,10,8,9,4,2],[1,10,8,9,4,2,6],[1,10,8,9,4,5,7,6],[1,10,8,9,4,5,7,6,2],[1,10,8,9,5,4,3,2],[1,10,8,9,5,4,3,2,6],[1,10,8,9,5,4,2],[1,10,8,9,5,4,2,6],[1,10,8,9,5,7,4,3,2],[1,10,8,9,5,7,4,3,2,6],[1,10,8,9,5,7,4,2],[1,10,8,9,5,7,6],[1,10,8,9,5,7,6,2],[1,2,4,9,5,7,6],[1,2,4,7,6],[1,2,4,5,7,6],[1,2,3,4,9,5,7,6],[1,2,3,4,7,6],[1,2,3,4,5,7,6],[1,2,6],[2,10,9,4],[2,10,9,4,3],[2,10,9,4,7,6],[2,10,9,4,5,7,6],[2,10,9,5,4],[2,10,9,5,4,3],[2,10,9,5,7,4],[2,10,9,5,7,4,3],[2,10,9,5,7,6],[2,10,8,9,4],[2,10,8,9,4,3],[2,10,8,9,4,7,6],[2,10,8,9,4,5,7,6],[2,10,8,9,5,4],[2,10,8,9,5,4,3],[2,10,8,9,5,7,4],[2,10,8,9,5,7,4,3],[2,10,8,9,5,7,6],[2,4,9,5,7,6],[2,4,3],[2,4,7,6],[2,4,5,7,6],[2,3,4,9,5,7,6],[2,3,4,7,6],[2,3,4,5,7,6],[4,9,5],[4,9,5,7],[4,7,5],[8,9,10]]
RES: [[0,7,6],[1,10,2],[1,2,6],[2,10,9,4],[2,10,9,4,3],[2,10,8,9,4,3],[2,4,3],[2,4,7,6],[4,9,5],[4,7,5],[8,9,10]]
