11
0/1,1/1
0/1,0/1
1/4,0/1
1/2,1/4
1/2,1/2
0/1,1/2
1/4,1/4
1/1,1/1
3/4,0/1
1/1,0/1
1/1,1/2
3
3 0 4 5
3 3 8 6
3 4 10 7
0/1,0/1
1/1,0/1
1/1,1/4
3/4,1/2
1/2,1/2
1/2,0/1
3/4,1/4
0/1,0/1
1/1,1/4
1/1,0/1
1/2,0/1
