  % Total    % Received % Xferd  Average Speed   Time    Time     Time  Current
                                 Dload  Upload   Total   Spent    Left  Speed
  0     0    0     0    0     0      0      0 --:--:-- --:--:-- --:--:--     0100   642    0   128  100   514    211    850 --:--:-- --:--:-- --:--:--   849100   642    0   128  100   514    211    850 --:--:-- --:--:-- --:--:--   849
