18
3/8,1/1
3/8,0/1
1/2,0/1
1/2,1/1
1/4,1/1
1/4,0/1
1/8,1/1
1/8,0/1
0/1,0/1
0/1,1/1
5/8,1/1
3/4,1/1
7/8,1/1
1/1,1/1
1/1,0/1
7/8,0/1
3/4,0/1
5/8,0/1
8
4 0 4 5 1
4 0 3 2 1
4 2 17 10 3
4 4 6 7 5
4 6 9 8 7
4 10 11 16 17
4 11 12 15 16
4 12 13 14 15
0/1,0/1
1/1,0/1
1/1,1/8
0/1,1/8
0/1,1/8
1/1,1/8
0/1,0/1
1/1,0/1
1/1,1/8
0/1,1/8
0/1,0/1
0/1,1/8
0/1,0/1
0/1,1/8
1/1,1/8
1/1,0/1
1/1,1/8
1/1,0/1
