16
0/1,1/1
0/1,1/2
1/8,3/8
1/2,3/8
1/2,1/2
1/8,1/2
1/8,1/1
1/1,1/1
7/8,1/1
7/8,1/2
7/8,3/8
1/1,1/2
0/1,0/1
1/8,0/1
7/8,0/1
1/1,0/1
8
4 0 6 5 1
5 1 12 13 5 2
3 1 2 5
4 2 5 4 3
4 3 10 9 4
4 7 8 9 11
5 9 14 15 11 10
3 9 10 11
-3/2,-1/8
-1/1,-1/8
-7/8,0/1
-7/8,3/8
-1/1,3/8
-1/1,0/1
-3/2,0/1
-3/2,-1/8
-3/2,0/1
-1/1,0/1
-7/8,0/1
-1/1,-1/8
-3/2,-1/8
-3/2,0/1
-3/2,0/1
-3/2,-1/8
