  % Total    % Received % Xferd  Average Speed   Time    Time     Time  Current
                                 Dload  Upload   Total   Spent    Left  Speed
  0     0    0     0    0     0      0      0 --:--:-- --:--:-- --:--:--     0100   552    0   127  100   425    211    706 --:--:-- --:--:-- --:--:--   705100   552    0   127  100   425    211    706 --:--:-- --:--:-- --:--:--   705
