16
4/7,1/1
4/7,0/1
5/7,0/1
5/7,1/1
3/7,0/1
3/7,1/1
6/7,1/1
1/1,1/1
1/1,0/1
6/7,0/1
2/7,1/1
2/7,0/1
1/7,0/1
0/1,0/1
0/1,1/1
1/7,1/1
7
4 0 5 4 1
4 0 1 2 3
4 2 9 6 3
4 4 11 10 5
4 6 7 8 9
4 10 11 12 15
4 12 13 14 15
1193/119,281/17
6504/595,1441/85
924/85,1452/85
847/85,1416/85
924/85,1452/85
847/85,1416/85
1193/119,281/17
847/85,1416/85
924/85,1452/85
6504/595,1441/85
1193/119,281/17
6504/595,1441/85
924/85,1452/85
6504/595,1441/85
1193/119,281/17
847/85,1416/85
