  % Total    % Received % Xferd  Average Speed   Time    Time     Time  Current
                                 Dload  Upload   Total   Spent    Left  Speed
  0     0    0     0    0     0      0      0 --:--:-- --:--:-- --:--:--     0100   522  100    81  100   441     97    531 --:--:-- --:--:-- --:--:--   531100   522  100    81  100   441     97    531 --:--:-- --:--:-- --:--:--   531
