  % Total    % Received % Xferd  Average Speed   Time    Time     Time  Current
                                 Dload  Upload   Total   Spent    Left  Speed
  0     0    0     0    0     0      0      0 --:--:-- --:--:-- --:--:--     0100   540    0     0  100   540      0   2530 --:--:-- --:--:-- --:--:--  2523100   627  100    87  100   540    171   1062 --:--:-- --:--:-- --:--:--  1062
