4
0/1,1/1
0/1,0/1
1/1,0/1
1/1,1/1
1
4 0 1 2 3
209999999999999999999999999999999999999999999999999999999999999999999999999999999999999999999999999990/1,209999999999999999999999999999999999999999999999999999999999999999999999999999999999999999999999999990/1
209999999999999999999999999999999999999999999999999999999999999999999999999999999999999999999999999991/1,209999999999999999999999999999999999999999999999999999999999999999999999999999999999999999999999999990/1
209999999999999999999999999999999999999999999999999999999999999999999999999999999999999999999999999991/1,209999999999999999999999999999999999999999999999999999999999999999999999999999999999999999999999999991/1
209999999999999999999999999999999999999999999999999999999999999999999999999999999999999999999999999990/1,209999999999999999999999999999999999999999999999999999999999999999999999999999999999999999999999999991/1
