11
0/1,1/1
0/1,0/1
1/4,1/4
3/4,1/4
3/4,3/4
1/1,1/1
3/4,1/1
0/1,1/4
1/1,0/1
1/1,3/4
1/4,0/1
4
3 1 10 2
3 2 3 4
3 4 9 5
3 8 9 10
1/1,0/1
9/5,3/5
29/20,13/20
23/20,21/20
3/4,3/4
2/5,4/5
11/20,3/5
8/5,9/20
1/1,0/1
11/20,3/5
8/5,9/20
