MAKE: [Segment -1/2,-81/8 0/1,-81/8,Segment -1/2,-10/1 1/8,-10/1,Segment 0/1,-77/8 1/8,-77/8,Segment 0/1,-81/8 1/8,-10/1,Segment -1/2,-81/8 -1/2,-10/1,Segment 0/1,-81/8 0/1,-77/8,Segment 1/8,-10/1 1/8,-77/8]
Origami [-1/2,-81/8,0/1,-81/8,1/8,-10/1,1/8,-77/8,0/1,-77/8,0/1,-10/1,-1/2,-10/1] [Edge 0 1,Edge 6 5,Edge 5 2,Edge 4 3,Edge 1 2,Edge 0 6,Edge 1 5,Edge 5 4,Edge 2 3] [Facet [Edge 0 6,Edge 6 5,Edge 5 4,Edge 4 3,Edge 3 2,Edge 2 1,Edge 1 0],Facet [Edge 0 6,Edge 6 5,Edge 5 1,Edge 1 0],Facet [Edge 0 6,Edge 6 5,Edge 5 2,Edge 2 1,Edge 1 0],Facet [Edge 1 5,Edge 5 4,Edge 4 3,Edge 3 2,Edge 2 1],Facet [Edge 1 5,Edge 5 2,Edge 2 1],Facet [Edge 2 3,Edge 3 4,Edge 4 5,Edge 5 2]] (Meta [[0],[1],[2],[3],[4],[5],[6]])
MIN: [[0,6,5,13,12,1],[0,6,5,4,9,14,15,11,10,3,2,1],[0,6,5,4,9,11,10,3,2,1],[0,6,5,4,9,10,3,2,1],[0,6,5,4,9,8,7,11,10,3,2,1],[0,6,5,4,3,2,1],[0,6,5,1],[0,6,5,2,1],[1,12,13,5],[1,12,13,5,4,9,14,15,11,10,3,2],[1,12,13,5,4,9,11,10,3,2],[1,12,13,5,4,9,10,3,2],[1,12,13,5,4,9,8,7,11,10,3,2],[1,12,13,5,4,3,2],[1,12,13,5,2],[1,5,4,9,14,15,11,10,3,2],[1,5,4,9,11,10,3,2],[1,5,4,9,10,3,2],[1,5,4,9,8,7,11,10,3,2],[1,5,4,3,2],[1,5,2],[2,3,10,11,15,14,9,4,5],[2,3,10,11,9,4,5],[2,3,10,11,7,8,9,4,5],[2,3,10,9,4,5],[2,3,4,5],[3,10,11,15,14,9,4],[3,10,11,9,4],[3,10,11,7,8,9,4],[3,10,9,4],[7,8,9,14,15,11],[7,8,9,11],[7,8,9,10,11],[9,14,15,11],[9,14,15,11,10],[9,11,10]]
RES: [[0,6,5,1],[1,12,13,5,2],[1,5,2],[2,3,4,5],[3,10,9,4],[7,8,9,11],[9,14,15,11,10],[9,11,10]]
