  % Total    % Received % Xferd  Average Speed   Time    Time     Time  Current
                                 Dload  Upload   Total   Spent    Left  Speed
  0     0    0     0    0     0      0      0 --:--:-- --:--:-- --:--:--     0100   564  100   121  100   443    264    969 --:--:-- --:--:-- --:--:--   969100   564  100   121  100   443    264    968 --:--:-- --:--:-- --:--:--   967
