9
1/2,1/1
1/2,1/2
1/1,1/2
1/1,1/1
1/2,0/1
1/1,0/1
0/1,1/1
0/1,1/2
0/1,0/1
8
3 0 6 7
3 0 7 1
3 0 3 2
3 0 1 2
3 1 7 4
3 1 4 2
3 2 5 4
3 4 8 7
1/2,1/2
1/1,1/2
1/1,1/1
1/1,1/2
1/2,1/2
1/1,1/2
1/1,1/2
1/1,1/1
1/1,1/2
