  % Total    % Received % Xferd  Average Speed   Time    Time     Time  Current
                                 Dload  Upload   Total   Spent    Left  Speed
  0     0    0     0    0     0      0      0 --:--:-- --:--:-- --:--:--     0100   825    0   129  100   696    160    864 --:--:-- --:--:-- --:--:--   863100   825    0   129  100   696    160    864 --:--:-- --:--:-- --:--:--   863
