9
0/1,1/2
1/2,0/1
1/2,1/2
0/1,0/1
0/1,1/1
1/2,1/1
1/1,1/2
1/1,1/1
1/1,0/1
8
3 0 4 5
3 0 5 2
3 0 3 1
3 0 2 1
3 1 8 6
3 1 6 2
3 2 6 5
3 5 7 6
0/1,0/1
1/2,1/2
0/1,1/2
0/1,1/2
0/1,1/2
1/2,1/2
0/1,0/1
0/1,1/2
0/1,1/2
