  % Total    % Received % Xferd  Average Speed   Time    Time     Time  Current
                                 Dload  Upload   Total   Spent    Left  Speed
  0     0    0     0    0     0      0      0 --:--:-- --:--:-- --:--:--     0100   618  100    80  100   538     74    498  0:00:01  0:00:01 --:--:--   499100   618  100    80  100   538     74    498  0:00:01  0:00:01 --:--:--   499
