4
0/1,1/1
0/1,0/1
1/1,0/1
1/1,1/1
1
4 0 1 2 3
-131602404307249840163974269382614276/8656059743299229793415925725865,-95469475637518398547902716777591517/8656059743299229793415925725865
-131596283548706997392983846863299163/8656059743299229793415925725865,-95463354878975555776462779477127901/8656059743299229793415925725865
-131602404307249840164423784163762779/8656059743299229793415925725865,-95457234120432713005472356957812788/8656059743299229793415925725865
-131608525065792682935414206683077892/8656059743299229793415925725865,-95463354878975555776912294258276404/8656059743299229793415925725865
