MAKE: [Segment 26800/1,32702/1 1339993/50,817562/25,Segment 670012/25,1635107/50 1340017/50,1635131/50,Segment 26800/1,32702/1 670012/25,1635107/50,Segment 1339993/50,817562/25 1340017/50,1635131/50]
Origami [26800/1,32702/1,670012/25,1635107/50,1340017/50,1635131/50,1339993/50,817562/25] [Edge 3 0,Edge 2 1,Edge 0 1,Edge 3 2] [Facet [Edge 0 1,Edge 1 2,Edge 2 3,Edge 3 0]] (Meta [[0],[1],[2],[3]])
MIN: [[0,7,6,4],[0,7,6,4,5,3],[0,7,6,4,5,3,2,1],[0,7,8,1],[0,7,8,1,2,3],[0,7,8,1,2,3,5,4],[0,4,6,7,8,1],[0,4,6,7,8,1,2,3],[0,4,5,3],[0,4,5,3,2,1],[0,1,8,7,6,4,5,3],[0,1,2,3],[1,8,7,6,4,5,3,2]]
RES: [[0,7,6,4],[0,7,8,1],[0,4,5,3],[0,1,2,3]]
