MAKE: [Segment 0/1,0/1 1/1,0/1,Segment 0/1,0/1 1/2,1/2,Segment 0/1,0/1 0/1,1/2,Segment 0/1,1/2 1/2,1/2,Segment 1/1,0/1 1/2,1/2]
Origami [0/1,0/1,1/1,0/1,1/2,1/2,0/1,1/2] [Edge 0 1,Edge 0 2,Edge 0 3,Edge 3 2,Edge 2 1] [Facet [Edge 0 3,Edge 3 2,Edge 2 0],Facet [Edge 0 3,Edge 3 2,Edge 2 1,Edge 1 0],Facet [Edge 0 2,Edge 2 1,Edge 1 0]] (Meta [[0],[1],[2],[3]])
MIN: [[0,3,4,2],[0,3,4,2,1],[0,3,4,5,2],[0,3,4,5,2,1],[0,3,2],[0,3,2,1],[0,2,1],[2,5,4],[2,5,4,3],[2,4,3]]
RES: [[0,3,2],[0,2,1],[2,5,4],[2,4,3]]
