  % Total    % Received % Xferd  Average Speed   Time    Time     Time  Current
                                 Dload  Upload   Total   Spent    Left  Speed
  0     0    0     0    0     0      0      0 --:--:-- --:--:-- --:--:--     0100   504    0    63  100   441    103    725 --:--:-- --:--:-- --:--:--   725100   504    0    63  100   441    103    725 --:--:-- --:--:-- --:--:--   725
