  % Total    % Received % Xferd  Average Speed   Time    Time     Time  Current
                                 Dload  Upload   Total   Spent    Left  Speed
  0     0    0     0    0     0      0      0 --:--:-- --:--:-- --:--:--     0100   612    0     0  100   612      0   2875 --:--:-- --:--:-- --:--:--  2873100   675    0    63  100   612     85    831 --:--:-- --:--:-- --:--:--   830
