11
0/1,1/1
0/1,0/1
1/4,1/4
3/4,1/4
3/4,3/4
1/1,1/1
3/4,1/1
0/1,1/4
1/1,0/1
1/1,3/4
1/4,0/1
11
3 0 6 7
3 1 10 2
3 1 2 7
4 2 10 9 4
5 2 10 9 4 3
6 2 10 8 9 4 3
4 2 7 6 4
3 2 3 4
3 4 9 5
3 4 5 6
3 8 9 10
1/1,0/1
9/5,3/5
29/20,13/20
23/20,21/20
3/4,3/4
2/5,4/5
11/20,3/5
8/5,9/20
1/1,0/1
11/20,3/5
8/5,9/20
