8
0/1,1/1
1/4,1/4
3/5,1/5
3/7,3/7
1/1,1/1
1/1,0/1
0/1,2/7
0/1,0/1
13
3 0 6 1
3 0 6 4
4 0 6 4 3
3 0 3 1
3 0 3 4
4 0 1 6 4
3 1 7 6
4 1 7 6 5
3 1 6 5
4 1 6 4 3
4 1 5 3 2
3 1 2 3
3 3 5 4
-4294705151/21475098625,-30064902143/21475098625
21476016131/85900394500,-64424116217/85900394500
1718196634/21475098625,-9448770763/21475098625
1572868/150325690375,-107373658101/150325690375
-17179869184/21475098625,-12884901887/21475098625
-4294705151/21475098625,-30064902143/21475098625
1572868/150325690375,-107373658101/150325690375
1718196634/21475098625,-9448770763/21475098625
