10
1/1,1/1
1/2,1/2
1/2,0/1
1/1,0/1
3/4,1/4
1/1,1/2
0/1,1/1
0/1,0/1
1/4,1/4
0/1,1/2
8
3 0 1 5
3 1 6 9
3 1 9 8
3 1 8 2
3 1 5 4
3 1 2 4
3 2 8 7
3 2 4 3
-9070413587/4617127695,815538646/4617127695
-13188727387/9234255390,5886949001/9234255390
-173521802/124787235,283538777/249574470
-8722299548/4617127695,5419524394/4617127695
-30633326483/18468510780,16725997789/18468510780
-3558542627/1846851078,623506304/923425539
-9070413587/4617127695,815538646/4617127695
-8722299548/4617127695,5419524394/4617127695
-30633326483/18468510780,16725997789/18468510780
-3558542627/1846851078,623506304/923425539
