  % Total    % Received % Xferd  Average Speed   Time    Time     Time  Current
                                 Dload  Upload   Total   Spent    Left  Speed
  0     0    0     0    0     0      0      0 --:--:-- --:--:-- --:--:--     0100   840    0     0  100   840      0   3212 --:--:-- --:--:-- --:--:--  3206100   903    0    63  100   840    148   1985 --:--:-- --:--:-- --:--:--  1985
