  % Total    % Received % Xferd  Average Speed   Time    Time     Time  Current
                                 Dload  Upload   Total   Spent    Left  Speed
  0     0    0     0    0     0      0      0 --:--:-- --:--:-- --:--:--     0100   543    0     0  100   543      0   2366 --:--:-- --:--:-- --:--:--  2360100   671    0   128  100   543    185    785 --:--:-- --:--:-- --:--:--   784
