MAKE: [Segment -13188727387/9234255390,5886949001/9234255390 -8722299548/4617127695,5419524394/4617127695,Segment -13188727387/9234255390,5886949001/9234255390 -173521802/124787235,283538777/249574470,Segment -9070413587/4617127695,815538646/4617127695 -3558542627/1846851078,623506304/923425539,Segment -13188727387/9234255390,5886949001/9234255390 -3558542627/1846851078,623506304/923425539,Segment -173521802/124787235,283538777/249574470 -8722299548/4617127695,5419524394/4617127695,Segment -9070413587/4617127695,815538646/4617127695 -13188727387/9234255390,5886949001/9234255390,Segment -3558542627/1846851078,623506304/923425539 -173521802/124787235,283538777/249574470]
Origami [-9070413587/4617127695,815538646/4617127695,-13188727387/9234255390,5886949001/9234255390,-173521802/124787235,283538777/249574470,-8722299548/4617127695,5419524394/4617127695,-30633326483/18468510780,16725997789/18468510780,-3558542627/1846851078,623506304/923425539] [Edge 3 4,Edge 4 1,Edge 1 2,Edge 0 5,Edge 5 1,Edge 3 2,Edge 0 1,Edge 5 4,Edge 4 2] [Facet [Edge 0 1,Edge 1 5,Edge 5 0],Facet [Edge 0 1,Edge 1 2,Edge 2 4,Edge 4 5,Edge 5 0],Facet [Edge 0 1,Edge 1 2,Edge 2 3,Edge 3 4,Edge 4 5,Edge 5 0],Facet [Edge 0 1,Edge 1 4,Edge 4 5,Edge 5 0],Facet [Edge 1 5,Edge 5 4,Edge 4 1],Facet [Edge 1 5,Edge 5 4,Edge 4 2,Edge 2 1],Facet [Edge 1 5,Edge 5 4,Edge 4 3,Edge 3 2,Edge 2 1],Facet [Edge 1 2,Edge 2 4,Edge 4 1],Facet [Edge 1 2,Edge 2 3,Edge 3 4,Edge 4 1],Facet [Edge 2 4,Edge 4 3,Edge 3 2]] (Meta [[0],[1],[2],[3],[4],[5]])
MIN: [[0,1,6,9,8,2,4,5],[0,1,6,9,8,2,3,4,5],[0,1,6,9,8,7,2,4,5],[0,1,6,9,8,7,2,3,4,5],[0,1,9,8,2,4,5],[0,1,9,8,2,3,4,5],[0,1,9,8,7,2,4,5],[0,1,9,8,7,2,3,4,5],[0,1,8,2,4,5],[0,1,8,2,3,4,5],[0,1,8,7,2,4,5],[0,1,8,7,2,3,4,5],[0,1,5],[0,1,2,4,5],[0,1,2,3,4,5],[0,1,4,5],[1,6,9],[1,6,9,8],[1,6,9,8,2],[1,6,9,8,2,4],[1,6,9,8,2,4,5],[1,6,9,8,2,3,4],[1,6,9,8,2,3,4,5],[1,6,9,8,7,2],[1,6,9,8,7,2,4],[1,6,9,8,7,2,4,5],[1,6,9,8,7,2,3,4],[1,6,9,8,7,2,3,4,5],[1,9,8],[1,9,8,2],[1,9,8,2,4],[1,9,8,2,4,5],[1,9,8,2,3,4],[1,9,8,2,3,4,5],[1,9,8,7,2],[1,9,8,7,2,4],[1,9,8,7,2,4,5],[1,9,8,7,2,3,4],[1,9,8,7,2,3,4,5],[1,8,2],[1,8,2,4],[1,8,2,4,5],[1,8,2,3,4],[1,8,2,3,4,5],[1,8,7,2],[1,8,7,2,4],[1,8,7,2,4,5],[1,8,7,2,3,4],[1,8,7,2,3,4,5],[1,5,4],[1,5,4,2],[1,5,4,3,2],[1,2,4],[1,2,3,4],[2,8,7],[2,4,3]]
RES: [[0,1,5],[1,6,9],[1,9,8],[1,8,2],[1,5,4],[1,2,4],[2,8,7],[2,4,3]]
