  % Total    % Received % Xferd  Average Speed   Time    Time     Time  Current
                                 Dload  Upload   Total   Spent    Left  Speed
  0     0    0     0    0     0      0      0 --:--:-- --:--:-- --:--:--     0100   670    0     0  100   670      0   3148 --:--:-- --:--:-- --:--:--  3145100   733    0    63  100   670     96   1027 --:--:-- --:--:-- --:--:--  1026
