4
0/1,1/1
0/1,0/1
1/1,0/1
1/1,1/1
1
4 0 3 2 1
571372326591481422422163510666751786856773/969134248949041275421568816486370852915478,126080569369079340845749502588937677425243/969134248949041275421568816486370852915478
1432148977898780553017907568528138833852101/969134248949041275421568816486370852915478,571372326591481422422163510666751786856773/969134248949041275421568816486370852915478
986857220676378471441493560450324724420571/969134248949041275421568816486370852915478,1432148977898780553017907568528138833852101/969134248949041275421568816486370852915478
126080569369079340845749502588937677425243/969134248949041275421568816486370852915478,986857220676378471441493560450324724420571/969134248949041275421568816486370852915478
