MAKE: [Segment 5699/20996,-15161/20996 -4096/5249,-3071/5249,Segment -895/5249,-7231/5249 -4096/5249,-3071/5249,Segment -895/5249,-7231/5249 5699/20996,-15161/20996,Segment 5699/20996,-15161/20996 2562/26245,-10871/26245,Segment -895/5249,-7231/5249 2562/26245,-10871/26245]
Origami [-895/5249,-7231/5249,5699/20996,-15161/20996,2562/26245,-10871/26245,772/36743,-3619/5249,-4096/5249,-3071/5249] [Edge 4 3,Edge 3 1,Edge 4 0,Edge 0 1,Edge 2 1,Edge 0 3,Edge 3 2] [Facet [Edge 0 3,Edge 3 2,Edge 2 1,Edge 1 0],Facet [Edge 0 3,Edge 3 1,Edge 1 0],Facet [Edge 0 3,Edge 3 4,Edge 4 0],Facet [Edge 0 1,Edge 1 2,Edge 2 3,Edge 3 4,Edge 4 0],Facet [Edge 0 1,Edge 1 3,Edge 3 4,Edge 4 0],Facet [Edge 1 2,Edge 2 3,Edge 3 1]] (Meta [[0],[1],[2],[3],[4]])
MIN: [[0,6,5,3],[0,6,5,3,2,1],[0,6,5,3,1],[0,6,5,3,4],[0,6,5,1],[0,6,5,1,2,3,4],[0,6,5,1,3,4],[0,6,5,4],[0,6,7,1],[0,6,7,1,5,3],[0,6,7,1,5,3,4],[0,6,7,1,5,4],[0,6,7,1,2,3],[0,6,7,1,2,3,5,4],[0,6,7,1,2,3,4],[0,6,7,1,3],[0,6,7,1,3,4],[0,6,1],[0,6,1,5,4],[0,6,1,2,3],[0,6,1,2,3,4],[0,6,1,3],[0,6,1,3,4],[0,6,4],[0,6,4,3],[0,3,5,1],[0,3,5,4],[0,3,2,1],[0,3,2,1,5,4],[0,3,1],[0,3,1,5,4],[0,3,4],[0,1,7,6,4],[0,1,6,4],[0,1,5,4],[0,1,2,3,4],[0,1,3,4],[1,7,6],[1,7,6,5],[1,7,6,5,3],[1,7,6,5,3,2],[1,7,6,5,4,3],[1,7,6,5,4,3,2],[1,7,6,4,5],[1,7,6,4,3],[1,7,6,4,3,2],[1,6,5],[1,6,5,3],[1,6,5,3,2],[1,6,5,4,3],[1,6,5,4,3,2],[1,6,4,5],[1,6,4,3],[1,6,4,3,2],[1,5,3],[1,5,3,2],[1,5,4,3],[1,5,4,3,2],[1,2,3],[3,5,6,4],[3,5,4],[4,6,5]]
RES: [[0,6,1],[0,6,4],[0,6,4,3],[0,3,1],[0,3,4],[0,1,6,4],[1,7,6],[1,7,6,5],[1,6,5],[1,6,4,3],[1,5,3,2],[1,2,3],[3,5,4]]
