4
0/1,1/1
0/1,0/1
1/1,0/1
1/1,1/1
1
4 0 3 2 1
795621827/5469959787,-5247585/49278917
6101720639/5469959787,6723810/49278917
4772895794/5469959787,54526502/49278917
-533203018/5469959787,42555107/49278917
