10
0/1,1/1
0/1,1/2
1/2,1/2
1/1,1/1
1/2,1/1
1/4,3/4
0/1,0/1
1/4,1/4
1/2,0/1
1/1,0/1
8
3 0 5 1
3 1 7 2
3 1 7 6
3 1 5 2
3 2 9 8
3 2 8 7
3 2 3 4
3 2 4 5
0/1,0/1
1/2,0/1
1/2,1/2
0/1,1/1
0/1,1/2
1/4,1/4
0/1,0/1
1/4,1/4
0/1,1/2
0/1,1/1
