  % Total    % Received % Xferd  Average Speed   Time    Time     Time  Current
                                 Dload  Upload   Total   Spent    Left  Speed
  0     0    0     0    0     0      0      0 --:--:-- --:--:-- --:--:--     0100   568    0    63  100   505    105    842 --:--:-- --:--:-- --:--:--   841100   568    0    63  100   505    105    842 --:--:-- --:--:-- --:--:--   841
