4
0/1,1/1
0/1,0/1
1/1,0/1
1/1,1/1
1
4 0 3 2 1
1183039157/12096146967,-8200035/108974297
13115325149/12096146967,9676260/108974297
11131056404/12096146967,117174332/108974297
-801229588/12096146967,99298037/108974297
