10
0/1,1/1
0/1,2/3
1/3,0/1
1/1,0/1
1/1,1/3
2/3,1/1
7/15,11/15
8/15,4/15
0/1,0/1
1/1,1/1
5
8 0 1 7 2 3 4 6 5
3 1 8 2
3 1 2 7
3 4 9 5
3 4 5 6
4087999999999792874009/5480,6584000000000160941537/5480
12263999999999378627363/16440,6584000000000160941953/5480
4087999999999792878929/5480,19752000000000482833691/16440
4087999999999792878097/5480,6584000000000160948121/5480
2452799999999875725791/3288,1316800000000032189541/1096
4087999999999792873177/5480,19752000000000482835283/16440
61319999999996893122743/82200,98760000000002414165399/82200
61319999999996893158847/82200,98760000000002414179471/82200
61319999999996893158847/82200,98760000000002414179471/82200
61319999999996893122743/82200,98760000000002414165399/82200
