  % Total    % Received % Xferd  Average Speed   Time    Time     Time  Current
                                 Dload  Upload   Total   Spent    Left  Speed
  0     0    0     0    0     0      0      0 --:--:-- --:--:-- --:--:--     0100  1003    0     0  100  1003      0   4383 --:--:-- --:--:-- --:--:--  4379100  1066    0    63  100  1003    170   2714 --:--:-- --:--:-- --:--:--  2710
