MAKE: [Segment 0/1,0/1 1/1,0/1,Segment 0/1,0/1 0/1,1/1,Segment 1/1,0/1 1/1,1/1,Segment 0/1,1/1 1/1,1/1]
Origami [0/1,0/1,1/1,0/1,1/1,1/1,0/1,1/1] [Edge 0 1,Edge 0 3,Edge 1 2,Edge 3 2] [Facet [Edge 0 3,Edge 3 2,Edge 2 1,Edge 1 0]] (Meta [[0],[1],[2],[3]])
MIN: [[0,3,2,1]]
RES: [[0,3,2,1]]
