4
0/1,1/1
0/1,0/1
1/1,0/1
1/1,1/1
1
4 0 3 2 1
2028732617/33213848127,-14104935/299223857
35078719769/33213848127,15581160/299223857
31783563224/33213848127,313328792/299223857
-1266423928/33213848127,283642697/299223857
