  % Total    % Received % Xferd  Average Speed   Time    Time     Time  Current
                                 Dload  Upload   Total   Spent    Left  Speed
  0     0    0     0    0     0      0      0 --:--:-- --:--:-- --:--:--     0100   529    0     0  100   529      0   2480 --:--:-- --:--:-- --:--:--  2471100   592    0    63  100   529    105    884 --:--:-- --:--:-- --:--:--   884
