  % Total    % Received % Xferd  Average Speed   Time    Time     Time  Current
                                 Dload  Upload   Total   Spent    Left  Speed
  0     0    0     0    0     0      0      0 --:--:-- --:--:-- --:--:--     0100   393    0     0  100   393      0   1840 --:--:-- --:--:-- --:--:--  1836100   456    0    63  100   393    106    665 --:--:-- --:--:-- --:--:--   664
