9
1/2,1/2
1/2,0/1
1/1,0/1
1/1,1/2
0/1,1/2
0/1,0/1
0/1,1/1
1/2,1/1
1/1,1/1
4
4 0 7 6 4
4 0 7 8 3
4 0 4 5 1
4 0 3 2 1
15621/1,14375/1
203079/13,373755/26
406153/26,373767/26
406141/26,186881/13
406141/26,186881/13
406153/26,373767/26
406153/26,373767/26
203079/13,373755/26
406153/26,373767/26
